<?xml version="1.0" encoding="UTF-8" standalone="no"?>
<svg width="1024px" height="1024px" viewBox="0 0 1024 1024" version="1.1" xmlns="http://www.w3.org/2000/svg" xmlns:xlink="http://www.w3.org/1999/xlink" xmlns:sketch="http://www.bohemiancoding.com/sketch/ns">
    <title>iBooks01</title>
    <description>Created with Sketch (http://www.bohemiancoding.com/sketch)</description>
    <defs>
        <linearGradient x1="85.5435646%" y1="13.1797316%" x2="13.6178054%" y2="82.8102931%" id="linearGradient-1">
            <stop stop-color="#EE3E4D" offset="0%"></stop>
            <stop stop-color="#F4EB9B" offset="30.9642037%"></stop>
            <stop stop-color="#B6E584" offset="64.563471%"></stop>
            <stop stop-color="#348DED" offset="100%"></stop>
        </linearGradient>
        <linearGradient x1="20.8232786%" y1="8.96074646%" x2="85.8148327%" y2="84.5107384%" id="linearGradient-2">
            <stop stop-color="#348DED" offset="0%"></stop>
            <stop stop-color="#B6E584" offset="35.436529%"></stop>
            <stop stop-color="#F4EB9B" offset="69.0357963%"></stop>
            <stop stop-color="#EE3E4D" offset="100%"></stop>
        </linearGradient>
    </defs>
    <g id="Page-1" stroke="none" stroke-width="1" fill="none" fill-rule="evenodd" sketch:type="MSPage">
        <g id="design_logo" sketch:type="MSLayerGroup" transform="translate(119.000000, 122.000000)">
            <circle id="Oval" stroke="url(#linearGradient-1)" stroke-width="2.3" sketch:type="MSShapeGroup" cx="390" cy="389" r="354"></circle>
            <circle id="outer-border" stroke="url(#linearGradient-2)" stroke-width="2.3" sketch:type="MSShapeGroup" cx="389.5" cy="388.5" r="388.5"></circle>
            <g id="Group" transform="translate(278.000000, 159.000000)" fill="#EE2B3B" sketch:type="MSShapeGroup">
                <path d="M71.519457,347 L78,266.079371 L13.5894419,219 L1,302.786124 L71.519457,347 Z" id="Shape" opacity="0.5"></path>
                <path d="M133.11,384 L135,306.726079 L78.51,266 L72,346.208076 L133.11,384 Z" id="Shape" opacity="0.5"></path>
                <path d="M187,419 L185.393223,343.653105 L135.913955,308 L134,386.246681 L187,419 Z" id="Shape" opacity="0.5"></path>
                <path d="M233,447 L228.773715,374.399817 L186,343 L187.579051,418.407136 L233,447 Z" id="Shape" opacity="0.5"></path>
                <path d="M33.2156295,88 L24,148.898691 L83.1374819,197 L88,136.920155 L33.2156295,88 Z" id="Shape" opacity="0.5"></path>
                <path d="M41.1850255,33 L33,87.1343729 L88.6487652,137 L93,83.1041046 L41.1850255,33 Z" id="Shape" opacity="0.5"></path>
                <path d="M161,305 L160.976744,227.152878 L102.953488,177 L98,257.192486 L161,305 Z" id="Shape" opacity="0.5"></path>
                <path d="M72.7479212,349 L1,304.172296 L98.9798687,258 L163,306.453298 L72.7479212,349 Z" id="Shape" opacity="0.7"></path>
                <path d="M12.9075476,218.682366 L0,302 L98.9181005,256.714582 L104,177 L12.9075476,218.682366 Z" id="Shape" opacity="0.7"></path>
                <path d="M13,218 L23.8618964,147.664506 L108,109 L103.721791,176.321452 L13,218 Z" id="Shape" opacity="0.7"></path>
                <path d="M23.6243773,148 L13,218.847437 L77.4669545,266 L83,196.765427 L23.6243773,148 Z" id="Shape" opacity="0.5"></path>
                <path d="M24,150 L33.4736273,88.2787322 L112,52 L108.262916,111.06557 L24,150 Z" id="Shape" opacity="0.7"></path>
                <path d="M33,88 L41.1048035,34.0399784 L113,0 L109.832606,51.63047 L33,88 Z" id="Shape" opacity="0.7"></path>
                <path d="M72,346.916026 L133.678577,385 L217,346.182732 L161.939094,305 L72,346.916026 Z" id="Shape" opacity="0.7"></path>
                <path d="M134,385.538819 L186.33261,418 L263,382.099536 L216.290288,347 L134,385.538819 Z" id="Shape" opacity="0.7"></path>
                <path d="M187,417.338958 L233.256757,446 L306,411.997799 L264.709459,381 L187,417.338958 Z" id="Shape" opacity="0.7"></path>
                <path d="M162,227 L161.953507,160.411576 L108.184369,109 L104,176.79783 L162,227 Z" id="Shape" opacity="0.5"></path>
                <path d="M162,161 L161.976654,103.212921 L111.66537,52 L108,110.278386 L162,161 Z" id="Shape" opacity="0.5"></path>
                <path d="M162,104 L161.976334,52.1550103 L114.218561,0 L111,51.7972942 L162,104 Z" id="Shape" opacity="0.5"></path>
                <path d="M163,227 L163.023942,304.133081 L219,345 L215.145361,270.378556 L163,227 Z" id="Shape" opacity="0.5"></path>
                <path d="M214,271 L217.839219,346.828626 L265,382 L258.364312,308.712452 L214,271 Z" id="Shape" opacity="0.5"></path>
                <path d="M258,309 L264.495558,382.150935 L305,413 L296.462981,342.362517 L258,309 Z" id="Shape" opacity="0.5"></path>
                <path d="M89,137 L93.2535622,83.7276761 L159.977008,52 L160,103.245147 L89,137 Z" id="Shape" opacity="0.7"></path>
                <path d="M85,197 L89.9014853,136.01 L161.97666,102 L162,160.6625 L85,197 Z" id="Shape" opacity="0.7"></path>
                <path d="M79,266 L84.5818028,197.109238 L161.953094,161 L162,227.271072 L79,266 Z" id="Shape" opacity="0.7"></path>
                <path d="M135.745496,307 L79,265.886256 L161.950149,227 L213,270.791469 L135.745496,307 Z" id="Shape" opacity="0.7"></path>
                <path d="M186.327669,342 L137,306.828269 L214.642788,271 L259,308.446169 L186.327669,342 Z" id="Shape" opacity="0.7"></path>
                <path d="M229.505694,374 L186,342.811341 L258.863771,309 L298,342.244275 L229.505694,374 Z" id="Shape" opacity="0.7"></path>
            </g>
            <g id="Group" transform="translate(146.000000, 242.000000)" fill="#F5EB91" sketch:type="MSShapeGroup">
                <path d="M337,224.125892 L258.52603,206 L203,264.287182 L283.4,289 L337,224.125892 Z" id="Shape" opacity="0.5"></path>
                <path d="M384,169.264676 L307.587571,156 L259,207.61689 L337.648776,226 L384,169.264676 Z" id="Shape" opacity="0.5"></path>
                <path d="M425,120.317559 L350.344891,111 L308,155.709838 L385.00365,169 L425,120.317559 Z" id="Shape" opacity="0.5"></path>
                <path d="M459,78.103909 L387.065194,72 L350,110.808511 L424.295647,120 L459,78.103909 Z" id="Shape" opacity="0.5"></path>
                <path d="M75,225.705589 L134.891441,244 L192,190.738697 L132.275056,177 L75,225.705589 Z" id="Shape" opacity="0.5"></path>
                <path d="M23,208.983909 L75.002823,225 L132,176.113815 L79.689468,164 L23,208.983909 Z" id="Shape" opacity="0.5"></path>
                <path d="M308,128.167016 L231.616477,117 L174,168.463312 L251.980719,185 L308,128.167016 Z" id="Shape" opacity="0.5"></path>
                <path d="M338,223.300546 L283.984405,288 L253,184.523409 L309.453634,128 L338,223.300546 Z" id="Shape" opacity="0.7"></path>
                <path d="M202.374379,263.543448 L283,288 L252.176712,185.32 L174,169 L202.374379,263.543448 Z" id="Shape" opacity="0.7"></path>
                <path d="M203,263 L134.486284,242.214502 L108,154 L174.428928,167.872727 L203,263 Z" id="Shape" opacity="0.7"></path>
                <path d="M135,243.064226 L203.228311,264 L259,205.541426 L191.644597,190 L135,243.064226 Z" id="Shape" opacity="0.5"></path>
                <path d="M135,244 L74.8792135,225.776758 L50,143 L108.30618,155.164667 L135,244 Z" id="Shape" opacity="0.7"></path>
                <path d="M74,226 L22.7459016,209.998473 L0,132 L49.6910467,142.667684 L74,226 Z" id="Shape" opacity="0.7"></path>
                <path d="M337.108346,225 L383,168.463015 L356.965984,79 L309,128.424963 L337.108346,225 Z" id="Shape" opacity="0.7"></path>
                <path d="M384.244373,167 L424,119.137655 L399.524116,37 L358,78.8262928 L384.244373,167 Z" id="Shape" opacity="0.7"></path>
                <path d="M423.41866,119 L458,77.4775583 L435.157496,1 L399,37.2968282 L423.41866,119 Z" id="Shape" opacity="0.7"></path>
                <path d="M232,117.529022 L166.426479,108 L108,155.027269 L174.139623,169 L232,117.529022 Z" id="Shape" opacity="0.5"></path>
                <path d="M167,107.305448 L108.868672,99 L50,141.919348 L108.083757,154 L167,107.305448 Z" id="Shape" opacity="0.5"></path>
                <path d="M109,99.4464789 L58.0859935,92 L0,132.321127 L50.4169381,143 L109,99.4464789 Z" id="Shape" opacity="0.5"></path>
                <path d="M232,117.648305 L308.553672,129 L357,79.1491525 L282.400188,72 L232,117.648305 Z" id="Shape" opacity="0.5"></path>
                <path d="M283,74.7410296 L358.478516,82 L400,39.0572023 L326.631942,35 L283,74.7410296 Z" id="Shape" opacity="0.5"></path>
                <path d="M327,34.0697819 L399.800043,38 L436,1.46791277 L365.365364,0 L327,34.0697819 Z" id="Shape" opacity="0.5"></path>
                <path d="M131,177 L79.3909149,164.959127 L58,92 L108.231286,99.4006159 L131,177 Z" id="Shape" opacity="0.7"></path>
                <path d="M190,190 L131.654905,176.339328 L109,99 L165.788296,107.348189 L190,190 Z" id="Shape" opacity="0.7"></path>
                <path d="M259,206 L191.599435,190.5151 L167,108 L232.629972,117.494564 L259,206 Z" id="Shape" opacity="0.7"></path>
                <path d="M306,154.857143 L257.98491,206 L232,117 L281.80635,72 L306,154.857143 Z" id="Shape" opacity="0.7"></path>
                <path d="M349,112.070968 L307.297345,156 L283,73.6774194 L326.244602,35 L349,112.070968 Z" id="Shape" opacity="0.7"></path>
                <path d="M387,72.3851395 L349.971698,111 L327,34.0066 L365.419811,0 L387,72.3851395 Z" id="Shape" opacity="0.7"></path>
            </g>
            <g id="Group" transform="translate(226.000000, 293.000000)" fill="#127EFC" sketch:type="MSShapeGroup">
                <path d="M63,92 L142.645485,82.1525424 L175,9 L91.3277592,13.4313559 L63,92 Z" id="Shape" opacity="0.5"></path>
                <path d="M39,160 L115.501012,146.306461 L144,83 L63.6739375,92.7644928 L39,160 Z" id="Shape" opacity="0.5"></path>
                <path d="M17,218 L90.2510885,201.529853 L115,147 L38.1930334,160.644046 L17,218 Z" id="Shape" opacity="0.5"></path>
                <path d="M0,270 L70.1529716,251.370732 L92,203 L18.5426357,219.598258 L0,270 Z" id="Shape" opacity="0.5"></path>
                <path d="M310,3 L247.526188,6.20510304 L212,74 L272.762852,66.6607785 L310,3 Z" id="Shape" opacity="0.5"></path>
                <path d="M364,0 L309.348187,2.83263452 L272,67 L325.626943,60.4919637 L364,0 Z" id="Shape" opacity="0.5"></path>
                <path d="M122,172 L197.353544,156.318836 L234,89 L155.368179,100.227619 L122,172 Z" id="Shape" opacity="0.5"></path>
                <path d="M63,93.1574803 L91.9047014,14 L157,100.669291 L122.959339,173 L63,93.1574803 Z" id="Shape" opacity="0.7"></path>
                <path d="M175.430544,9 L92,13.4843142 L155.611705,101 L234,89.5745398 L175.430544,9 Z" id="Shape" opacity="0.7"></path>
                <path d="M177,9.73007349 L248.719603,6 L304,79.4988694 L236.604003,89 L177,9.73007349 Z" id="Shape" opacity="0.7"></path>
                <path d="M249,6 L176.972052,9.73376029 L144,83 L213.33197,74.5462031 L249,6 Z" id="Shape" opacity="0.5"></path>
                <path d="M248,6.20635891 L310.477799,3 L362,70.8214613 L303.300813,79 L248,6.20635891 Z" id="Shape" opacity="0.7"></path>
                <path d="M309,2.82598684 L363.115224,0 L411,63.8065789 L360.165201,71 L309,2.82598684 Z" id="Shape" opacity="0.7"></path>
                <path d="M63.9859353,93 L39,161.182633 L94.5907173,235 L124,172.687863 L63.9859353,93 Z" id="Shape" opacity="0.7"></path>
                <path d="M37.8748443,161 L17,219.404903 L67.4125156,288 L92,234.619428 L37.8748443,161 Z" id="Shape" opacity="0.7"></path>
                <path d="M18.5714286,220 L0,270.857231 L48.1428571,335 L70,288.500615 L18.5714286,220 Z" id="Shape" opacity="0.7"></path>
                <path d="M199,156 L264.571331,142.583155 L304,79 L236.329623,88.5163259 L199,156 Z" id="Shape" opacity="0.5"></path>
                <path d="M263,143 L320.473684,131.321452 L361,72 L302.290323,80.1726619 L263,143 Z" id="Shape" opacity="0.5"></path>
                <path d="M321,132 L371.732314,121.632903 L413,65 L361.647836,72.207824 L321,132 Z" id="Shape" opacity="0.5"></path>
                <path d="M199,157 L123.035522,172.553442 L94,234 L166.706835,215.307971 L199,157 Z" id="Shape" opacity="0.5"></path>
                <path d="M167,216 L93.7603865,234.742885 L69,287 L139.18599,266.073929 L167,216 Z" id="Shape" opacity="0.5"></path>
                <path d="M140,268 L69.755796,288.973913 L48,335 L115.329212,312.488 L140,268 Z" id="Shape" opacity="0.5"></path>
                <path d="M272,66.4629691 L325.571429,60 L371,119.701096 L320.333333,130 L272,66.4629691 Z" id="Shape" opacity="0.7"></path>
                <path d="M212,75.421508 L272.204055,68 L320,132.18665 L263.068672,144 L212,75.421508 Z" id="Shape" opacity="0.7"></path>
                <path d="M144,83.3529075 L212.14069,75 L263,142.751361 L198.54069,156 L144,83.3529075 Z" id="Shape" opacity="0.7"></path>
                <path d="M115,147.223976 L143.355788,83 L198,156.846959 L165.861874,216 L115,147.223976 Z" id="Shape" opacity="0.7"></path>
                <path d="M91,202.099528 L115.400125,147 L166,215.254131 L138.374572,266 L91,202.099528 Z" id="Shape" opacity="0.7"></path>
                <path d="M69,251.68463 L90.8363883,203 L139,267.14529 L114.288527,312 L69,251.68463 Z" id="Shape" opacity="0.7"></path>
            </g>
        </g>
    </g>
</svg>