<svg version="1.1" id="Layer_1" xmlns="http://www.w3.org/2000/svg" xmlns:xlink="http://www.w3.org/1999/xlink" x="0px" y="0px"
	 width="35px" height="35px" viewBox="0 0 35 35" enable-background="new 0 0 35 35" xml:space="preserve">
<circle fill="none" stroke="#808080" stroke-miterlimit="10" cx="17.547" cy="17.541" r="16.749"/>
<rect x="11.635" y="9.633" fill="none" stroke="#808080" stroke-width="0.5" stroke-miterlimit="10" width="11.281" height="14.306"/>
<polygon fill="#808080" points="13.499,21.128 9.205,16.833 13.499,12.539 14.066,13.106 10.339,16.833 14.066,20.561 "/>
<polygon fill="#808080" points="21.053,12.539 25.347,16.833 21.053,21.128 20.486,20.561 24.213,16.833 20.486,13.106 "/>
</svg>
