<?xml version="1.0" encoding="UTF-8" standalone="no"?>
<svg width="37px" height="37px" viewBox="0 0 37 37" version="1.1" xmlns="http://www.w3.org/2000/svg" xmlns:xlink="http://www.w3.org/1999/xlink" xmlns:sketch="http://www.bohemiancoding.com/sketch/ns">
    <!-- Generator: Sketch 3.0.3 (7892) - http://www.bohemiancoding.com/sketch -->
    <title>checkbox</title>
    <desc>Created with Sketch.</desc>
    <defs></defs>
    <g id="Current-Icons" stroke="none" stroke-width="1" fill="none" fill-rule="evenodd" sketch:type="MSPage">
        <g id="checkbox" sketch:type="MSLayerGroup" transform="translate(1.500000, 1.500000)">
            <circle id="iconBorder" stroke="#808080" sketch:type="MSShapeGroup" cx="16.749" cy="16.749" r="16.749"></circle>
            <circle id="Oval" stroke="#808080" stroke-width="0.5" fill="#808080" sketch:type="MSShapeGroup" cx="16.226" cy="16.226" r="6.226"></circle>
            <path d="M12.843,16.413 L15.385,19.011 L20.251,14.072" id="Shape" stroke="#FFFFFF" stroke-width="0.5" sketch:type="MSShapeGroup"></path>
        </g>
    </g>
</svg>