<?xml version="1.0" encoding="UTF-8" standalone="no"?>
<svg width="35px" height="35px" viewBox="0 0 35 35" version="1.1" xmlns="http://www.w3.org/2000/svg" xmlns:xlink="http://www.w3.org/1999/xlink" xmlns:sketch="http://www.bohemiancoding.com/sketch/ns">
    <!-- Generator: Sketch 3.0.3 (7892) - http://www.bohemiancoding.com/sketch -->
    <title>favourite</title>
    <desc>Created with Sketch.</desc>
    <defs></defs>
    <g id="Current-Icons" stroke="none" stroke-width="1" fill="none" fill-rule="evenodd" sketch:type="MSPage">
        <g id="favourite" sketch:type="MSLayerGroup" transform="translate(0.500000, 0.500000)">
            <circle id="iconBorder" stroke="#808080" sketch:type="MSShapeGroup" cx="16.749" cy="16.749" r="16.749"></circle>
            <path d="M22.231,24.537 L16.396,20.311 L10.574,24.527 L12.756,17.692 L7.263,13.522 L14.298,13.531 L16.381,6.547 L18.611,13.497 L25.831,13.497 L19.99,17.698 L22.231,24.537 L22.231,24.537 Z M9.752,14.359 L13.734,17.383 L12.146,22.354 L16.395,19.277 L20.63,22.344 L19.002,17.377 L23.231,14.335 L17.999,14.335 L16.409,9.38 L14.92,14.375 L9.752,14.359 L9.752,14.359 Z" id="Star" fill="#808080" sketch:type="MSShapeGroup"></path>
        </g>
    </g>
</svg>