<?xml version="1.0" encoding="UTF-8" standalone="no"?>
<svg width="35px" height="35px" viewBox="0 0 35 35" version="1.1" xmlns="http://www.w3.org/2000/svg" xmlns:xlink="http://www.w3.org/1999/xlink" xmlns:sketch="http://www.bohemiancoding.com/sketch/ns">
    <!-- Generator: Sketch 3.0.3 (7892) - http://www.bohemiancoding.com/sketch -->
    <title>fullHeightnobox</title>
    <desc>Created with Sketch.</desc>
    <defs></defs>
    <g id="Current-Icons" stroke="none" stroke-width="1" fill="none" fill-rule="evenodd" sketch:type="MSPage">
        <g id="fullHeightnobox" sketch:type="MSLayerGroup" transform="translate(0.500000, 0.500000)">
            <circle id="iconBorder" stroke="#808080" sketch:type="MSShapeGroup" cx="16.749" cy="16.749" r="16.749"></circle>
            <path d="M20.794,21.74 L16.5,26.035 L12.206,21.74 L12.773,21.173 L16.5,24.9 L20.227,21.173 L20.794,21.74 Z M12.206,10.496 L16.5,6.202 L20.794,10.496 L20.227,11.064 L16.5,7.336 L12.773,11.064 L12.206,10.496 Z" id="fullHeight" fill="#808080" sketch:type="MSShapeGroup"></path>
        </g>
    </g>
</svg>