<?xml version="1.0" encoding="UTF-8" standalone="no"?>
<svg width="35px" height="35px" viewBox="0 0 35 35" version="1.1" xmlns="http://www.w3.org/2000/svg" xmlns:xlink="http://www.w3.org/1999/xlink" xmlns:sketch="http://www.bohemiancoding.com/sketch/ns">
    <!-- Generator: Sketch 3.0.3 (7892) - http://www.bohemiancoding.com/sketch -->
    <title>hamburger</title>
    <desc>Created with Sketch.</desc>
    <defs></defs>
    <g id="Current-Icons" stroke="none" stroke-width="1" fill="none" fill-rule="evenodd" sketch:type="MSPage">
        <g id="hamburger" sketch:type="MSLayerGroup" transform="translate(0.500000, 0.500000)">
            <circle id="iconBorder" stroke="#808080" sketch:type="MSShapeGroup" cx="16.749" cy="16.749" r="16.749"></circle>
            <path d="M8,13.8235294 L25,13.8235294 L25,11 L8,11 L8,13.8235294 Z M8,18.4117647 L25,18.4117647 L25,15.5882353 L8,15.5882353 L8,18.4117647 Z M8,23 L25,23 L25,20.1764706 L8,20.1764706 L8,23 Z" id="Hamburger" fill="#808080" sketch:type="MSShapeGroup"></path>
        </g>
    </g>
</svg>