<?xml version="1.0" encoding="UTF-8" standalone="no"?>
<svg width="35px" height="35px" viewBox="0 0 35 35" version="1.1" xmlns="http://www.w3.org/2000/svg" xmlns:xlink="http://www.w3.org/1999/xlink" xmlns:sketch="http://www.bohemiancoding.com/sketch/ns">
    <!-- Generator: Sketch 3.0.3 (7892) - http://www.bohemiancoding.com/sketch -->
    <title>originalSizenobox</title>
    <desc>Created with Sketch.</desc>
    <defs></defs>
    <g id="Current-Icons" stroke="none" stroke-width="1" fill="none" fill-rule="evenodd" sketch:type="MSPage">
        <g id="originalSizenobox" sketch:type="MSLayerGroup" transform="translate(0.500000, 0.500000)">
            <circle id="iconBoarder" stroke="#808080" sketch:type="MSShapeGroup" cx="16.749" cy="16.749" r="16.749"></circle>
            <path d="M13.612,6.041 L13.612,11.902 L7.751,11.902 L7.751,11.128 L12.838,11.128 L12.838,6.041 L13.612,6.041 Z M18.638,25.437 L18.638,19.576 L24.498,19.576 L24.498,20.35 L19.412,20.35 L19.412,25.437 L18.638,25.437 Z" id="Shape" fill="#808080" sketch:type="MSShapeGroup"></path>
        </g>
    </g>
</svg>