<?xml version="1.0" encoding="UTF-8" standalone="no"?>
<svg width="35px" height="35px" viewBox="0 0 35 35" version="1.1" xmlns="http://www.w3.org/2000/svg" xmlns:xlink="http://www.w3.org/1999/xlink" xmlns:sketch="http://www.bohemiancoding.com/sketch/ns">
    <!-- Generator: Sketch 3.0.3 (7892) - http://www.bohemiancoding.com/sketch -->
    <title>other</title>
    <desc>Created with Sketch.</desc>
    <defs></defs>
    <g id="Current-Icons" stroke="none" stroke-width="1" fill="none" fill-rule="evenodd" sketch:type="MSPage">
        <g id="other" sketch:type="MSLayerGroup" transform="translate(0.500000, 0.500000)">
            <circle id="iconBorder" stroke="#808080" sketch:type="MSShapeGroup" cx="16.749" cy="16.749" r="16.749"></circle>
            <path d="M16.9996667,9.36714894 L24.8483333,23.3191489 L9.15166667,23.3191489 L16.9996667,9.36714894 L16.9996667,9.36714894 Z M16.9996667,8 L8,24 L26,24 L16.9996667,8 L16.9996667,8 Z" id="Fill-65" fill="#808080" sketch:type="MSShapeGroup"></path>
            <path d="M16.6666667,14.4680851 L17.3333333,14.4680851 L17.3333333,19.2340426 L16.6666667,19.2340426 L16.6666667,14.4680851 Z" id="Fill-66" fill="#808080" sketch:type="MSShapeGroup"></path>
            <path d="M16.8323333,20.2553191 C16.5563333,20.2553191 16.3333333,20.4840851 16.3333333,20.7659574 C16.3333333,21.0474894 16.5563333,21.2762553 16.8323333,21.2762553 C17.1093333,21.2762553 17.3333333,21.0474894 17.3333333,20.7659574 C17.3333333,20.4840851 17.1093333,20.2553191 16.8323333,20.2553191" id="Fill-67" fill="#808080" sketch:type="MSShapeGroup"></path>
        </g>
    </g>
</svg>