<?xml version="1.0" encoding="UTF-8" standalone="no"?>
<svg width="35px" height="35px" viewBox="0 0 35 35" version="1.1" xmlns="http://www.w3.org/2000/svg" xmlns:xlink="http://www.w3.org/1999/xlink" xmlns:sketch="http://www.bohemiancoding.com/sketch/ns">
    <!-- Generator: Sketch 3.0.3 (7892) - http://www.bohemiancoding.com/sketch -->
    <title>picture2</title>
    <desc>Created with Sketch.</desc>
    <defs></defs>
    <g id="Current-Icons" stroke="none" stroke-width="1" fill="none" fill-rule="evenodd" sketch:type="MSPage">
        <g id="picture2" sketch:type="MSLayerGroup" transform="translate(0.500000, 0.500000)">
            <circle id="iconBorder" stroke="#808080" sketch:type="MSShapeGroup" cx="16.749" cy="16.749" r="16.749"></circle>
            <path d="M18.739,16.979 C18.739,15.769 17.758,14.787 16.547,14.787 C15.336,14.787 14.355,15.769 14.355,16.979 C14.355,18.189 15.336,19.171 16.547,19.171 C17.758,19.171 18.739,18.19 18.739,16.979 L18.739,16.979 Z M15.751,17.203 L14.915,17.243 C14.853,15.937 16.093,15.371 16.757,15.254 L16.904,16.078 C16.855,16.087 15.708,16.309 15.751,17.203 L15.751,17.203 Z" id="Shape" fill="#808080" sketch:type="MSShapeGroup"></path>
            <path d="M23.434,10.052 L9.661,10.052 C9.155,10.052 8.745,10.462 8.745,10.968 L8.745,22.115 C8.745,22.621 9.155,23.031 9.661,23.031 L23.434,23.031 C23.94,23.031 24.35,22.621 24.35,22.115 L24.35,10.968 C24.35,10.462 23.94,10.052 23.434,10.052 L23.434,10.052 Z M11.005,10.876 L13.723,10.876 L13.723,11.67 L11.005,11.67 L11.005,10.876 L11.005,10.876 Z M23.098,21.81 L10.074,21.81 L10.074,20.71 L23.097,20.71 L23.097,21.81 L23.098,21.81 Z M13.509,17.076 C13.509,15.376 14.887,13.998 16.587,13.998 C18.286,13.998 19.664,15.376 19.664,17.076 C19.664,18.775 18.286,20.153 16.587,20.153 C14.887,20.153 13.509,18.775 13.509,17.076 L13.509,17.076 Z M23.098,13.411 L10.088,13.411 C10.058,13.411 10.088,12.129 10.088,12.129 L14.975,12.099 L14.975,11.396 L23.098,11.396 L23.098,13.411 L23.098,13.411 Z" id="Shape" fill="#808080" sketch:type="MSShapeGroup"></path>
        </g>
    </g>
</svg>