<?xml version="1.0" standalone="no"?>
<!DOCTYPE svg PUBLIC "-//W3C//DTD SVG 1.1//EN" "http://www.w3.org/Graphics/SVG/1.1/DTD/svg11.dtd" >
<svg xmlns="http://www.w3.org/2000/svg">
<metadata>
Created by FontPrep 20130207 at Sat Dec  6 16:55:21 2014
 By Lawrence Chin
Copyright (c) 1989, 1995, 2002 Adobe Systems Incorporated.  All Rights Reserved. (c) 1981, 1995, 2002 Heidelberger Druckmaschinen AG. All rights reserved.
</metadata>
<defs>
<font id="1297092b477b7e1dcddfcf3bbb416185" horiz-adv-x='1024' >
  <font-face 
    font-family="AvenirLTStd-Roman"
    font-weight="400"
    font-stretch="normal"
    units-per-em="2048"
    panose-1="2 11 5 3 2 2 3 2 2 4"
    ascent="1548"
    descent="-500"
    x-height="958"
    cap-height="1450"
    bbox="-340 -512 2048 1900"
    underline-thickness="102"
    underline-position="-102"
    unicode-range="U+0020-FB02"
  />
<missing-glyph horiz-adv-x="1024" 
d="M102 1239v-1044l349 522zM164 102h696l-348 523zM573 717l349 -522v1044zM512 809l348 522h-696zM0 0v1434h1024v-1434h-1024z" />
    <glyph glyph-name="fi" unicode="fi" horiz-adv-x="1099" 
d="M737 1331q0 49 34 84t83 35t83 -35t34 -84t-33 -82t-84 -33t-84 34q-33 32 -33 81zM774 0v958h160v-958h-160zM627 958v-135h-234v-823h-160v823h-208v135h208v216q0 399 340 399q78 0 123 -25l-22 -143q-56 20 -112 20q-117 0 -145 -84q-24 -72 -24 -202v-181h234z" />
    <glyph glyph-name="fl" unicode="fl" horiz-adv-x="1099" 
d="M774 0v1548h160v-1548h-160zM233 0v823h-208v135h208v216q0 399 340 399q78 0 123 -25l-22 -143q-56 20 -112 20q-117 0 -145 -84q-24 -72 -24 -202v-181h234v-135h-234v-823h-160z" />
    <glyph glyph-name=".notdef" horiz-adv-x="1024" 
d="M102 1239v-1044l349 522zM164 102h696l-348 523zM573 717l349 -522v1044zM512 809l348 522h-696zM0 0v1434h1024v-1434h-1024z" />
    <glyph glyph-name=".null" horiz-adv-x="0" 
 />
    <glyph glyph-name="nonmarkingreturn" horiz-adv-x="681" 
 />
    <glyph glyph-name="space" unicode=" " horiz-adv-x="569" 
 />
    <glyph glyph-name="exclam" unicode="!" horiz-adv-x="569" 
d="M285 233q51 1 87 -35t36 -86t-37 -87t-86 -37t-86 37t-37 87t36 86t87 35zM371 1450v-1044h-172v1044h172z" />
    <glyph glyph-name="quotedbl" unicode="&#x22;" horiz-adv-x="1062" 
d="M608 958v492h148v-492h-148zM307 958v492h148v-492h-148z" />
    <glyph glyph-name="numbersign" unicode="#" 
d="M678 571l43 312h-258l-43 -312h258zM61 436v135h222l41 312h-201v135h221l62 432h137l-62 -432h258l62 432h137l-61 -432h200v-135h-219l-43 -312h201v-135h-221l-62 -436h-137l61 436h-258l-61 -436h-137l61 436h-201z" />
    <glyph glyph-name="dollar" unicode="$" 
d="M623 629v-494q106 12 176 81q69 69 69 168q0 98 -66 154t-179 91zM524 831v484q-100 -18 -160 -84t-60 -162q0 -97 53 -145q54 -48 167 -93zM524 -170v145q-297 0 -438 191l143 125q43 -68 125 -110t170 -46v520q-406 109 -405 416q0 166 119 278t286 126v135h99v-135
q252 0 397 -166l-135 -123q-96 129 -262 129v-510q260 -79 345 -175t85 -257q0 -160 -124 -274t-306 -124v-145h-99z" />
    <glyph glyph-name="percent" unicode="%" horiz-adv-x="1705" 
d="M348 0l909 1516l113 -66l-909 -1516zM1059 334q0 -86 63 -148q64 -62 148 -63q84 0 147 62q63 63 63 149t-62 148q-64 62 -148 62t-148 -62t-63 -148zM911 334q-1 150 103 254t256 104t255 -104t103 -254t-103 -254t-255 -104t-256 104t-103 254zM225 1116
q-1 -86 63 -148t148 -62t148 62t63 148q0 86 -63 148q-64 62 -148 63q-84 -1 -148 -63t-63 -148zM78 1116q0 150 104 254t254 104t254 -104t104 -254t-104 -254t-254 -104t-254 104t-104 254z" />
    <glyph glyph-name="ampersand" unicode="&#x26;" horiz-adv-x="1478" 
d="M295 390q0 -110 84 -188q83 -78 191 -79t184 51t159 150l-362 381q-119 -66 -187 -136q-68 -69 -69 -179zM646 1329q-83 0 -143 -54q-60 -55 -60 -141t100 -190l51 -53q63 35 87 49t71 51t65 77q19 40 19 104t-54 111q-54 46 -136 46zM123 389q0 272 321 420
q-84 86 -129 163t-45 173q0 156 109 244t265 88t260 -84q103 -84 104 -238q0 -209 -308 -369l308 -325l194 325h195l-279 -446l332 -340h-236l-196 209q-92 -117 -194 -175t-240 -59q-193 0 -327 113t-134 301z" />
    <glyph glyph-name="quotesingle" unicode="'" horiz-adv-x="569" 
d="M211 958v492h147v-492h-147z" />
    <glyph glyph-name="parenleft" unicode="(" horiz-adv-x="569" 
d="M260 590q0 -238 62 -426t200 -406l-110 -77q-144 201 -222 437t-77 472q0 504 299 909l110 -82q-262 -360 -262 -827z" />
    <glyph glyph-name="parenright" unicode=")" horiz-adv-x="569" 
d="M457 590q0 -504 -299 -909l-111 81q262 360 262 828q0 238 -62 426q-63 188 -200 405l111 78q145 -201 222 -437t77 -472z" />
    <glyph glyph-name="asterisk" unicode="*" horiz-adv-x="909" 
d="M516 1450v-305l291 98l39 -119l-289 -98l182 -244l-100 -77l-184 251l-179 -251l-102 77l178 244l-289 98l39 119l291 -98v305h123z" />
    <glyph glyph-name="plus" unicode="+" horiz-adv-x="1363" 
d="M147 553v135h467v467h136v-467h467v-135h-467v-467h-136v467h-467z" />
    <glyph glyph-name="comma" unicode="," horiz-adv-x="569" 
d="M432 209l-168 -492h-158l140 492h186z" />
    <glyph glyph-name="hyphen" unicode="-" horiz-adv-x="681" 
d="M90 418v147h502v-147h-502z" />
    <glyph glyph-name="period" unicode="." horiz-adv-x="569" 
d="M285 233q51 1 87 -35t36 -86t-37 -87t-86 -37t-86 37t-37 87t36 86t87 35z" />
    <glyph glyph-name="slash" unicode="/" horiz-adv-x="757" 
d="M752 1487l-617 -1575l-129 51l617 1573z" />
    <glyph glyph-name="zero" unicode="0" 
d="M569 123q82 0 144 43q61 43 94 105q82 154 82 453t-82 455q-33 62 -94 105t-143 43t-144 -43q-61 -43 -94 -105q-82 -154 -82 -453t82 -455q33 -62 94 -105t143 -43zM78 725q0 555 288 702q90 47 204 47t203 -46q288 -154 288 -703q0 -378 -146 -582q-53 -75 -142 -121
t-204 -46t-203 46q-88 48 -143 121q-145 202 -145 582z" />
    <glyph glyph-name="one" unicode="1" 
d="M737 1450v-1450h-172v1229h-4l-260 -219l-102 125l389 315h149z" />
    <glyph glyph-name="two" unicode="2" 
d="M102 0v197l547 532q115 111 160 183t45 176t-76 172t-186 68t-184 -63q-72 -62 -93 -169l-186 16q29 174 152 268t307 94t311 -102q127 -104 127 -283t-89 -295q-48 -65 -85 -104t-109 -106l-446 -420v-4h739v-160h-934z" />
    <glyph glyph-name="three" unicode="3" 
d="M418 688v148h53q330 0 330 251q0 109 -69 175t-179 65q-188 0 -266 -162l-166 64q51 119 164 182t277 63t287 -98q124 -100 124 -280q0 -113 -70 -205t-178 -127v-4q135 -23 216 -124t81 -241q0 -199 -137 -309t-342 -111q-362 0 -467 306l174 57q36 -117 104 -166
t191 -49t208 80t85 216t-106 203t-261 66h-53z" />
    <glyph glyph-name="four" unicode="4" 
d="M686 492v757h-4l-463 -757h467zM858 1450v-958h209v-160h-209v-332h-172v332h-614v190l575 928h211z" />
    <glyph glyph-name="five" unicode="5" 
d="M971 1450v-160h-592l-6 -391q72 35 186 35q207 0 335 -135t128 -345t-141 -344t-357 -135q-299 0 -428 265l172 65q37 -84 109 -133t162 -49q133 0 222 93t89 245q0 153 -100 239t-250 86t-303 -90l14 754h760z" />
    <glyph glyph-name="six" unicode="6" 
d="M569 737q-133 0 -223 -84t-90 -223t90 -223t223 -84t224 84q90 84 90 223t-90 223q-91 84 -224 84zM616 885q190 0 314 -127t125 -331q0 -204 -137 -328q-136 -124 -348 -124t-349 124t-137 331q0 115 34 206t103 202l385 612h201l-389 -604l4 -4q74 43 194 43z" />
    <glyph glyph-name="seven" unicode="7" 
d="M983 1450v-160l-580 -1290h-194l590 1290h-701v160h885z" />
    <glyph glyph-name="eight" unicode="8" 
d="M279 412q-1 -125 83 -207t207 -82t207 82t84 207q0 124 -84 206t-207 82t-207 -82t-83 -206zM328 1087q0 -104 68 -172q68 -67 173 -67q106 0 174 68t68 171q0 105 -68 173t-174 68t-174 -68q-67 -69 -67 -173zM156 1096q0 168 117 273q118 105 296 105t296 -104
q118 -106 118 -274q0 -106 -65 -199q-66 -92 -173 -121v-4q129 -27 208 -131t79 -242q0 -193 -132 -309t-331 -115q-199 0 -331 116t-132 308q0 137 79 241t208 132v4q-106 29 -172 121q-65 93 -65 199z" />
    <glyph glyph-name="nine" unicode="9" 
d="M569 713q133 0 224 84q90 84 90 223t-90 223q-89 84 -223 84t-224 -84t-90 -223t90 -223t223 -84zM522 565q-190 0 -314 127t-124 331t137 328t348 124t349 -124t137 -331q0 -115 -34 -206t-103 -202l-386 -612h-200l389 604l-4 4q-74 -43 -195 -43z" />
    <glyph glyph-name="colon" unicode=":" horiz-adv-x="569" 
d="M285 233q51 1 87 -35t36 -86t-37 -87t-86 -37t-86 37t-37 87t36 86t87 35zM285 983q51 0 87 -36t36 -86t-37 -87t-86 -37t-86 37t-37 87t36 86t87 36z" />
    <glyph glyph-name="semicolon" unicode=";" horiz-adv-x="569" 
d="M285 983q51 0 87 -36t36 -86t-37 -87t-86 -37t-86 37t-37 87t36 86t87 36zM432 209l-168 -492h-158l140 492h186z" />
    <glyph glyph-name="less" unicode="&#x3c;" horiz-adv-x="1363" 
d="M1217 1155v-135l-904 -399l904 -400v-135l-1070 475v119z" />
    <glyph glyph-name="equal" unicode="=" horiz-adv-x="1363" 
d="M147 393v135h1070v-135h-1070zM147 713v135h1070v-135h-1070z" />
    <glyph glyph-name="greater" unicode="&#x3e;" horiz-adv-x="1363" 
d="M147 86v135l904 400l-904 399v135l1070 -475v-119z" />
    <glyph glyph-name="question" unicode="?" horiz-adv-x="987" 
d="M473 233q51 1 87 -35t36 -86t-37 -87t-86 -37t-86 37t-37 87t36 86t87 35zM387 406v129q0 106 26 152q27 46 75 95t76 77t37 38t32 36t31 42t24 47t18 113q0 81 -58 143t-158 61q-100 0 -168 -60q-66 -60 -82 -163l-185 21q27 164 147 257t292 93t284 -96t113 -269
q0 -128 -74 -225q-41 -53 -69 -82t-91 -88q-63 -61 -80 -100t-18 -127v-94h-172z" />
    <glyph glyph-name="at" unicode="@" horiz-adv-x="1638" 
d="M1126 403q100 1 194 141t93 306q0 230 -167 378t-390 148q-264 0 -447 -192t-183 -462q0 -268 186 -458q188 -190 444 -190q152 0 292 68t224 180h129q-98 -166 -271 -262t-374 -97q-322 0 -544 221q-222 222 -222 540t224 540t526 223q302 0 506 -178q203 -178 202 -449
q0 -126 -48 -240q-88 -208 -274 -308q-84 -44 -148 -44t-101 35t-39 100h-4q-117 -135 -251 -135t-214 91t-80 227q0 225 135 402t342 177q166 0 228 -168h4l37 129h133l-172 -579q-18 -59 -19 -103q0 -41 49 -41zM537 600q0 -84 51 -140t127 -57q125 -1 221 147t96 288
q0 78 -50 135t-116 57q-135 0 -232 -142t-97 -288z" />
    <glyph glyph-name="A" unicode="A" horiz-adv-x="1441" 
d="M1016 516l-287 713h-4l-301 -713h592zM12 0l639 1450h162l617 -1450h-201l-148 356h-725l-149 -356h-195z" />
    <glyph glyph-name="B" unicode="B" horiz-adv-x="1290" 
d="M352 676v-516h291q143 0 247 62q103 62 103 196t-98 196q-98 61 -248 62h-295zM352 1290v-454h238q235 0 302 114q28 49 28 121q0 219 -312 219h-256zM180 0v1450h443q203 0 342 -86t139 -270q0 -123 -68 -207t-186 -121v-4q141 -12 234 -114q94 -102 94 -229
q0 -128 -50 -211q-84 -140 -313 -189q-94 -19 -203 -19h-432z" />
    <glyph glyph-name="C" unicode="C" horiz-adv-x="1441" 
d="M834 1327q-238 0 -396 -179t-158 -429t156 -423t408 -173t409 203l129 -109q-188 -254 -548 -254q-313 0 -526 217q-212 217 -212 543t209 545t538 219t503 -227l-150 -109q-64 86 -160 131t-202 45z" />
    <glyph glyph-name="D" unicode="D" horiz-adv-x="1517" 
d="M326 1290v-1130h327q264 0 424 140t160 425t-160 425t-424 140h-327zM154 0v1450h557q241 0 460 -161q111 -81 181 -227t70 -336t-70 -338q-70 -146 -181 -227q-221 -161 -460 -161h-557z" />
    <glyph glyph-name="E" unicode="E" horiz-adv-x="1214" 
d="M180 0v1450h912v-160h-740v-454h690v-160h-690v-516h776v-160h-948z" />
    <glyph glyph-name="F" unicode="F" 
d="M180 0v1450h899v-160h-727v-479h676v-160h-676v-651h-172z" />
    <glyph glyph-name="G" unicode="G" horiz-adv-x="1593" 
d="M1413 811v-713q-244 -135 -543 -135q-340 0 -557 211t-217 549t224 551t553 213q328 0 516 -191l-129 -135q-154 166 -400 166t-413 -170t-167 -432t168 -432q166 -170 433 -170q193 0 360 84v444h-334v160h506z" />
    <glyph glyph-name="H" unicode="H" horiz-adv-x="1478" 
d="M180 0v1450h172v-614h774v614h172v-1450h-172v676h-774v-676h-172z" />
    <glyph glyph-name="I" unicode="I" horiz-adv-x="532" 
d="M180 0v1450h172v-1450h-172z" />
    <glyph glyph-name="J" unicode="J" horiz-adv-x="987" 
d="M807 1450v-1075q0 -168 -100 -290t-314 -122q-156 0 -258 80t-129 231l172 35q37 -186 217 -186q240 0 240 311v1016h172z" />
    <glyph glyph-name="K" unicode="K" horiz-adv-x="1290" 
d="M180 0v1450h172v-627h25l659 627h248l-717 -662l752 -788h-252l-690 737h-25v-737h-172z" />
    <glyph glyph-name="L" unicode="L" horiz-adv-x="1024" 
d="M180 0v1450h172v-1290h664v-160h-836z" />
    <glyph glyph-name="M" unicode="M" horiz-adv-x="1857" 
d="M180 0v1450h256l492 -1137h4l495 1137h250v-1450h-172v1217h-4l-520 -1217h-104l-521 1217h-4v-1217h-172z" />
    <glyph glyph-name="N" unicode="N" horiz-adv-x="1593" 
d="M180 0v1450h217l840 -1204h4v1204h172v-1450h-217l-840 1204h-4v-1204h-172z" />
    <glyph glyph-name="O" unicode="O" horiz-adv-x="1708" 
d="M854 123q252 0 413 174t160 428q0 254 -160 428q-161 174 -413 174t-413 -174t-161 -428t162 -428q160 -174 412 -174zM854 -37q-330 0 -544 216t-214 546t214 546t544 216t544 -216t214 -546t-214 -546t-544 -216z" />
    <glyph glyph-name="P" unicode="P" horiz-adv-x="1214" 
d="M352 1290v-479h291q133 0 212 60q79 59 79 179t-79 180t-212 60h-291zM180 0v1450h430q224 0 366 -93t142 -304q0 -305 -313 -382q-78 -19 -162 -20h-291v-651h-172z" />
    <glyph glyph-name="Q" unicode="Q" horiz-adv-x="1708" 
d="M281 743q1 -247 161 -415t400 -168t400 169t161 415q0 246 -160 414q-159 169 -401 169t-402 -169t-159 -415zM1683 147v-147h-841q-317 0 -532 214q-214 214 -214 529t214 529t532 215q318 0 531 -214q214 -214 214 -530q0 -188 -96 -356t-256 -235v-5h448z" />
    <glyph glyph-name="R" unicode="R" horiz-adv-x="1251" 
d="M352 1290v-479h154q226 0 293 30q100 43 128 109q17 43 17 109t-30 117q-67 114 -320 114h-242zM180 0v1450h371q323 0 456 -103q52 -42 87 -117t34 -179q0 -158 -96 -257t-266 -126l412 -668h-211l-394 651h-221v-651h-172z" />
    <glyph glyph-name="S" unicode="S" 
d="M604 1327q-127 0 -218 -61t-91 -171q1 -110 65 -166q64 -55 205 -101t201 -70t131 -74q137 -93 137 -298q0 -204 -148 -314t-362 -109q-137 0 -257 49t-189 152l147 121q45 -78 129 -120t193 -42q109 -1 206 67t97 185q0 61 -17 102t-71 75t-98 51q-45 17 -113 39t-80 28
q-176 57 -268 145t-92 254q0 199 144 309t349 109q261 0 406 -170l-142 -123q-82 133 -264 133z" />
    <glyph glyph-name="T" unicode="T" horiz-adv-x="1175" 
d="M1153 1450v-160h-479v-1290h-172v1290h-479v160h1130z" />
    <glyph glyph-name="U" unicode="U" horiz-adv-x="1441" 
d="M1268 1450v-897q0 -260 -133 -425t-414 -165t-414 165t-133 425v897h172v-872q0 -188 82 -321q82 -134 292 -134q211 0 292 132t84 323v872h172z" />
    <glyph glyph-name="V" unicode="V" horiz-adv-x="1251" 
d="M537 0l-555 1450h194l447 -1192h4l460 1192h183l-568 -1450h-165z" />
    <glyph glyph-name="W" unicode="W" horiz-adv-x="1972" 
d="M436 0l-424 1450h191l329 -1204h5l356 1204h192l355 -1204h4l336 1204h180l-426 -1450h-186l-359 1229h-4l-360 -1229h-189z" />
    <glyph glyph-name="X" unicode="X" horiz-adv-x="1290" 
d="M-6 0l528 764l-487 686h221l391 -567l387 567h215l-487 -686l534 -764h-227l-430 643l-432 -643h-213z" />
    <glyph glyph-name="Y" unicode="Y" horiz-adv-x="1216" 
d="M522 0v625l-540 825h219l407 -655l420 655h207l-541 -825v-625h-172z" />
    <glyph glyph-name="Z" unicode="Z" horiz-adv-x="1175" 
d="M59 0v154l838 1136h-825v160h1034v-147l-838 -1143h848v-160h-1057z" />
    <glyph glyph-name="bracketleft" unicode="[" horiz-adv-x="530" 
d="M395 1499v-123h-190v-1573h190v-122h-338v1818h338z" />
    <glyph glyph-name="backslash" unicode="\" horiz-adv-x="757" 
d="M623 -88l-617 1575l129 49l617 -1573z" />
    <glyph glyph-name="bracketright" unicode="]" horiz-adv-x="530" 
d="M135 1376v123h338v-1818h-338v122h191v1573h-191z" />
    <glyph glyph-name="asciicircum" unicode="^" horiz-adv-x="1363" 
d="M164 563l457 887h122l457 -887h-151l-367 715l-367 -715h-151z" />
    <glyph glyph-name="underscore" unicode="_" horiz-adv-x="1024" 
d="M0 -256v102h1024v-102h-1024z" />
    <glyph glyph-name="grave" unicode="`" horiz-adv-x="491" 
d="M174 1450l213 -295h-145l-293 295h225z" />
    <glyph glyph-name="a" unicode="a" horiz-adv-x="1062" 
d="M762 461h-160q-334 0 -334 -185q0 -166 211 -165q131 0 205 83t78 205v62zM506 983q222 0 319 -100q96 -100 97 -305v-412q0 -80 14 -166h-154q-10 43 -10 143h-4q-109 -168 -315 -168q-154 0 -255 75q-102 75 -102 220t107 219t233 90q126 17 264 17h62v29
q0 102 -62 156t-176 55q-171 -1 -284 -105l-101 105q145 147 367 147z" />
    <glyph glyph-name="b" unicode="b" horiz-adv-x="1251" 
d="M303 479q0 -154 94 -255t246 -101t246 101t94 255t-94 255q-94 102 -246 102t-246 -102t-94 -255zM143 0v1548h160v-729h4q141 164 354 164t353 -142q140 -141 141 -359q0 -218 -138 -362t-341 -145q-125 -1 -223 55t-146 140h-4v-170h-160z" />
    <glyph glyph-name="c" unicode="c" horiz-adv-x="987" 
d="M587 836q-151 0 -235 -100t-84 -255q0 -154 90 -256t241 -102t237 119l118 -113q-133 -154 -358 -154q-224 1 -362 141t-138 361t138 363t363 143q225 0 364 -152l-127 -112q-96 117 -247 117z" />
    <glyph glyph-name="d" unicode="d" horiz-adv-x="1251" 
d="M948 479q0 154 -94 255q-94 102 -246 102t-246 -102t-94 -255q0 -154 94 -255t246 -101t246 101t94 255zM948 0v170h-4q-47 -84 -145 -139t-224 -56q-203 1 -341 145t-138 361t140 359t354 143q213 0 354 -164h4v729h160v-1548h-160z" />
    <glyph glyph-name="e" unicode="e" 
d="M582 836q-130 0 -214 -74t-100 -197h602q-4 123 -80 197q-77 74 -208 74zM582 -25q-218 1 -352 145t-134 362t140 360t349 141q210 0 334 -133t123 -369v-51h-774q10 -127 98 -217t216 -90q190 0 305 145l121 -94q-154 -199 -426 -199z" />
    <glyph glyph-name="f" unicode="f" horiz-adv-x="645" 
d="M233 0v823h-208v135h208v216q0 399 340 399q78 0 123 -25l-22 -143q-56 20 -112 20q-117 0 -145 -84q-24 -72 -24 -202v-181h234v-135h-234v-823h-160z" />
    <glyph glyph-name="g" unicode="g" horiz-adv-x="1251" 
d="M268 482q0 -148 98 -248t248 -99q150 -1 242 101t92 252t-95 249t-246 99t-245 -102q-94 -104 -94 -252zM1108 958v-915q0 -260 -135 -397q-135 -138 -405 -138t-453 183l114 131q154 -166 357 -166q362 0 362 387v123h-4q-55 -88 -146 -133t-192 -45q-225 0 -367 139
q-143 139 -143 362t140 359t370 135q102 0 198 -49t140 -139h4v163h160z" />
    <glyph glyph-name="h" unicode="h" 
d="M152 0v1548h159v-723h4q35 63 119 111t189 47q182 0 273 -105t91 -286v-592h-160v575q0 123 -55 192t-164 69q-150 0 -224 -98t-73 -271v-467h-159z" />
    <glyph glyph-name="i" unicode="i" horiz-adv-x="491" 
d="M129 1331q0 49 34 84t83 35t83 -35q33 -35 33 -84t-32 -82t-84 -33q-51 0 -84 34q-33 32 -33 81zM166 0v958h160v-958h-160z" />
    <glyph glyph-name="j" unicode="j" horiz-adv-x="491" 
d="M129 1331q0 49 34 84t83 35t83 -35q33 -35 33 -84t-32 -82t-84 -33q-51 0 -84 34q-33 32 -33 81zM326 958v-1173q0 -89 -53 -174q-28 -45 -88 -74t-136 -29t-119 21l19 139q41 -12 78 -12q83 0 111 52t28 151v1099h160z" />
    <glyph glyph-name="k" unicode="k" horiz-adv-x="1024" 
d="M152 0v1548h159v-1011l437 421h227l-463 -436l510 -522h-236l-475 504v-504h-159z" />
    <glyph glyph-name="l" unicode="l" horiz-adv-x="491" 
d="M166 0v1548h160v-1548h-160z" />
    <glyph glyph-name="m" unicode="m" horiz-adv-x="1744" 
d="M623 983q217 0 303 -182q112 182 306 182t278 -102t83 -299v-582h-159v573q0 262 -234 263q-104 0 -176 -78t-72 -205v-553h-159v543q0 157 -43 225t-142 68q-150 0 -224 -98t-73 -271v-467h-159v731l-9 227h152l4 -157h4q35 76 121 129t199 53z" />
    <glyph glyph-name="n" unicode="n" 
d="M623 983q182 0 273 -105t91 -286v-592h-160v575q0 123 -55 192t-164 69q-150 0 -224 -98t-73 -271v-467h-159v731l-9 227h152l4 -157h4q35 76 121 129t199 53z" />
    <glyph glyph-name="o" unicode="o" horiz-adv-x="1216" 
d="M268 479q0 -154 94 -255t246 -101t246 101t94 255t-94 255q-94 102 -246 102t-246 -102t-94 -255zM96 479q0 223 144 363t368 141q224 0 368 -140q144 -139 144 -363t-144 -364t-368 -140t-368 140t-144 363z" />
    <glyph glyph-name="p" unicode="p" horiz-adv-x="1251" 
d="M303 479q0 -154 94 -255t246 -101t246 101t94 255t-94 255q-94 102 -246 102t-246 -102t-94 -255zM143 -467v1425h160v-139h4q141 164 354 164t353 -142q140 -141 141 -359q0 -218 -138 -362t-341 -145q-125 -1 -223 55t-146 140h-4v-637h-160z" />
    <glyph glyph-name="q" unicode="q" horiz-adv-x="1251" 
d="M948 479q0 154 -94 255q-94 102 -246 102t-246 -102t-94 -255q0 -154 94 -255t246 -101t246 101t94 255zM1108 958v-1425h-160v606h-4q-141 -164 -354 -164q-213 1 -353 143q-141 142 -141 359t138 361t341 145q125 0 223 -55t146 -140h4v170h160z" />
    <glyph glyph-name="r" unicode="r" horiz-adv-x="720" 
d="M623 983q37 0 65 -10l-10 -162q-39 12 -86 12q-281 0 -281 -356v-467h-159v731l-9 227h152l4 -157h4q35 76 121 129t199 53z" />
    <glyph glyph-name="s" unicode="s" horiz-adv-x="872" 
d="M418 123q84 0 147 37t63 111t-65 106q-50 24 -137 45q-88 20 -134 34q-143 45 -181 124q-25 49 -25 120q0 133 106 208t252 75q233 0 326 -174l-133 -88q-70 115 -203 115q-74 0 -131 -35t-57 -99q0 -92 241 -139q150 -29 232 -91t82 -205t-112 -217t-255 -75
q-143 1 -232 41t-157 138l127 98q104 -129 246 -129z" />
    <glyph glyph-name="t" unicode="t" horiz-adv-x="720" 
d="M676 958v-135h-283v-479q0 -148 35 -184t111 -37q76 0 139 33l6 -146q-78 -35 -186 -35q-160 0 -212 78t-53 244v526h-208v135h208v273h160v-273h283z" />
    <glyph glyph-name="u" unicode="u" 
d="M152 367v591h159v-575q-1 -123 55 -192t164 -68q150 0 224 98t73 271v466h160v-731l8 -227h-151l-4 158h-4q-35 -76 -121 -129t-199 -54q-182 -1 -273 105t-91 287z" />
    <glyph glyph-name="v" unicode="v" horiz-adv-x="987" 
d="M967 958l-379 -958h-176l-392 958h187l299 -751h4l285 751h172z" />
    <glyph glyph-name="w" unicode="w" horiz-adv-x="1517" 
d="M1489 958l-309 -958h-158l-272 737h-5l-241 -737h-164l-311 958h176l219 -737h4l248 737h168l252 -737h4l217 737h172z" />
    <glyph glyph-name="x" unicode="x" horiz-adv-x="1024" 
d="M6 0l393 516l-344 442h209l254 -344l240 344h194l-329 -442l395 -516h-211l-303 414l-299 -414h-199z" />
    <glyph glyph-name="y" unicode="y" horiz-adv-x="987" 
d="M204 -492q-112 0 -163 25l20 139q43 -16 114 -16t110 39t67 119l66 180l-398 964h187l297 -751h4l285 751h174l-463 -1177q-55 -141 -121 -207q-67 -66 -179 -66z" />
    <glyph glyph-name="z" unicode="z" horiz-adv-x="909" 
d="M61 0v125l564 698h-539v135h748v-122l-564 -701h578v-135h-787z" />
    <glyph glyph-name="braceleft" unicode="{" horiz-adv-x="681" 
d="M602 1499v-123h-110q-100 0 -101 -162v-360q0 -121 -59 -184t-117 -78v-4q57 -8 117 -70t59 -194v-359q0 -162 101 -162h110v-122h-143q-84 -1 -150 69t-65 187v358q0 104 -54 169t-122 64v123q68 0 122 66t54 166v360q0 117 67 187q68 70 148 69h143z" />
    <glyph glyph-name="bar" unicode="|" horiz-adv-x="454" 
d="M160 1536h135v-2048h-135v2048z" />
    <glyph glyph-name="braceright" unicode="}" horiz-adv-x="681" 
d="M80 1376v123h143q80 1 148 -69t67 -187v-360q0 -100 54 -166t122 -66v-123q-70 0 -122 -64t-54 -169v-358q0 -117 -66 -187t-149 -69h-143v122h110q100 0 101 162v359q0 133 59 194t117 70v4q-57 14 -117 78t-59 184v360q0 162 -101 162h-110z" />
    <glyph glyph-name="asciitilde" unicode="~" horiz-adv-x="1363" 
d="M1006 514q-52 -32 -121 -31q-70 0 -212 69q-141 69 -222 71q-106 0 -172 -144l-68 99q41 57 67 88q26 32 78 62t121 30q70 0 212 -69q141 -69 222 -71q104 1 174 144l68 -98q-43 -58 -69 -88t-78 -62z" />
    <glyph glyph-name="uni00A0" unicode="&#xa0;" horiz-adv-x="569" 
 />
    <glyph glyph-name="exclamdown" unicode="&#xa1;" horiz-adv-x="569" 
d="M285 762q-51 0 -87 36t-36 86t37 87t86 37t86 -37t37 -87t-36 -86t-87 -36zM199 -455v1045h172v-1045h-172z" />
    <glyph glyph-name="cent" unicode="&#xa2;" 
d="M567 -160v135q-195 25 -313 162t-117 341q0 204 119 342t311 157v141h99v-135q207 -10 335 -152l-127 -112q-86 104 -208 117v-713q131 8 211 119l118 -113q-119 -139 -329 -154v-135h-99zM309 482q1 -134 71 -232t187 -125v706q-125 -25 -191 -121q-66 -94 -67 -228z
" />
    <glyph glyph-name="sterling" unicode="&#xa3;" 
d="M117 0v160h221v516h-197v135h197v164q0 254 120 377t320 123t328 -127l-113 -121q-104 100 -234 100q-249 0 -249 -356v-160h332v-135h-332v-516h504v-160h-897z" />
    <glyph glyph-name="currency" unicode="&#xa4;" 
d="M57 729q0 174 111 307l-111 111l90 90l111 -109q141 109 311 109t312 -109l110 109l90 -90l-110 -111q111 -133 111 -307t-111 -313l110 -113l-90 -90l-110 113q-145 -113 -311 -113t-312 113l-111 -113l-90 90l111 113q-111 139 -111 313zM570 1090q-144 0 -248 -108
t-105 -254q1 -146 105 -257t247 -111t248 111t105 257t-104 254t-248 108z" />
    <glyph glyph-name="yen" unicode="&#xa5;" 
d="M483 0v356h-325v123h325v146l-18 32h-307v123h233l-391 670h205l364 -670l365 670h205l-391 -670h233v-123h-307l-19 -32v-146h326v-123h-326v-356h-172z" />
    <glyph glyph-name="brokenbar" unicode="&#xa6;" horiz-adv-x="454" 
d="M160 358h135v-716h-135v716zM160 1382h135v-716h-135v716z" />
    <glyph glyph-name="section" unicode="&#xa7;" 
d="M799 546q0 89 -61 137q-61 49 -138 87l-119 59q-129 -50 -160 -114t1 -129q24 -53 98 -90q22 -13 63 -33l183 -88q53 23 93 73t40 98zM369 1156q0 -93 90 -140l200 -101q234 -110 286 -219q26 -53 26 -118q0 -174 -176 -273q141 -92 141 -255t-124 -254t-278 -91
q-154 -1 -263 63q-108 64 -156 189l157 74q53 -178 258 -178q94 0 158 47q63 47 64 141q0 52 -20 77q-20 26 -27 34q-5 8 -23 20t-24 17t-30 17q-22 12 -26 13q-4 2 -29 14t-26 13l-250 131q-150 78 -150 257t207 279q-158 90 -158 244t117 242t255 88q289 0 380 -193
l-153 -84q-23 62 -81 96t-138 34t-144 -46q-64 -45 -63 -138z" />
    <glyph glyph-name="dieresis" unicode="&#xa8;" horiz-adv-x="491" 
d="M449 1401q45 0 77 -33t33 -78q0 -45 -32 -78q-33 -32 -79 -32t-78 32t-32 78q0 45 33 78t78 33zM43 1401q45 0 78 -33t33 -78t-32 -78q-32 -32 -79 -32t-79 32t-32 78q0 45 33 78t78 33z" />
    <glyph glyph-name="copyright" unicode="&#xa9;" horiz-adv-x="1638" 
d="M193 725q0 -275 181 -463t444 -188t446 188q182 188 182 462t-182 464q-182 188 -446 188t-444 -188q-181 -188 -181 -463zM57 725q-1 322 223 542t538 220t538 -220t225 -542q0 -322 -224 -542q-225 -220 -539 -220t-538 220t-223 542zM850 258q-205 0 -330 132
t-125 337t121 334t328 129q150 0 255 -81t128 -228h-125q-16 86 -87 142t-169 56q-148 0 -232 -99q-84 -98 -84 -250t90 -256t230 -105q100 -1 169 59t83 150h127q-33 -148 -135 -234t-244 -86z" />
    <glyph glyph-name="ordfeminine" unicode="&#xaa;" horiz-adv-x="690" 
d="M492 1145h-99q-190 0 -190 -94q0 -33 33 -53t97 -19q64 0 111 41t48 90v35zM614 1231v-262q0 -27 9 -88h-125q-6 49 -6 92h-5q-51 -104 -204 -105q-98 0 -157 46q-58 46 -58 135q0 55 27 93q28 38 64 57q83 44 285 44h48v29q0 32 -40 62t-104 30t-114 -19
q-52 -19 -74 -45l-64 86q94 88 242 88t212 -60t64 -183z" />
    <glyph glyph-name="guillemotleft" unicode="&#xab;" horiz-adv-x="1024" 
d="M905 856l-239 -364l239 -365l-112 -74l-293 439l293 438zM524 856l-239 -364l239 -365l-112 -74l-293 439l293 438z" />
    <glyph glyph-name="logicalnot" unicode="&#xac;" horiz-adv-x="1363" 
d="M147 713v135h1070v-569h-136v434h-934z" />
    <glyph glyph-name="uni00AD" unicode="&#xad;" horiz-adv-x="681" 
d="M90 418v147h502v-147h-502z" />
    <glyph glyph-name="registered" unicode="&#xae;" horiz-adv-x="1638" 
d="M193 725q0 -275 181 -463t444 -188t446 188q182 188 182 462t-182 464q-182 188 -446 188t-444 -188q-181 -188 -181 -463zM57 725q-1 322 223 542t538 220t538 -220t225 -542q0 -322 -224 -542q-225 -220 -539 -220t-538 220t-223 542zM664 1061v-287h139q181 0 219 67
q18 32 18 83q0 82 -55 110t-143 27h-178zM528 281v890h336q311 0 312 -253q0 -219 -236 -244l256 -393h-145l-242 383h-145v-383h-136z" />
    <glyph glyph-name="macron" unicode="&#xaf;" horiz-adv-x="491" 
d="M528 1352v-123h-565v123h565z" />
    <glyph glyph-name="degree" unicode="&#xb0;" horiz-adv-x="819" 
d="M227 1182q1 -68 53 -125t130 -57t130 56q52 58 52 126t-52 125t-130 57t-130 -57t-53 -125zM117 1182q0 123 85 208t208 85q124 0 208 -85t84 -208t-85 -208t-207 -85t-208 85q-85 85 -85 208z" />
    <glyph glyph-name="plusminus" unicode="&#xb1;" horiz-adv-x="1363" 
d="M147 86v135h1070v-135h-1070zM147 676v135h467v344h136v-344h467v-135h-467v-344h-136v344h-467z" />
    <glyph glyph-name="twosuperior" unicode="&#xb2;" horiz-adv-x="739" 
d="M66 592v119l344 309q66 59 93 99t27 103q0 62 -43 102t-107 40t-109 -37q-46 -37 -58 -100l-129 10q18 119 97 178t201 59t203 -65q81 -66 81 -190q0 -66 -30 -124t-61 -90t-92 -85l-245 -213v-5h436v-110h-608z" />
    <glyph glyph-name="threesuperior" unicode="&#xb3;" horiz-adv-x="739" 
d="M287 991v111h35q44 0 80 8t72 42t36 91q0 121 -145 121q-123 0 -166 -86l-113 51q72 145 279 146q119 -1 199 -61t81 -167q0 -68 -45 -123t-117 -75v-5q89 -12 141 -72t52 -145q0 -117 -89 -183t-222 -64q-240 0 -302 188l111 47q47 -125 191 -125q75 0 125 38t51 106
q0 158 -222 157h-32z" />
    <glyph glyph-name="acute" unicode="&#xb4;" horiz-adv-x="491" 
d="M104 1155l213 295h226l-293 -295h-146z" />
    <glyph glyph-name="mu" unicode="&#xb5;" 
d="M311 -467h-159v1425h159v-575q-1 -123 55 -192t164 -68q150 0 224 98t73 271v466h160v-731l8 -227h-151l-4 158h-4q-35 -76 -121 -129t-201 -53t-203 51v-494z" />
    <glyph glyph-name="paragraph" unicode="&#xb6;" horiz-adv-x="1228" 
d="M598 -258v905q-186 0 -307 110t-121 271q0 198 125 310t342 112h498v-1708h-148v1573h-242v-1573h-147z" />
    <glyph glyph-name="periodcentered" unicode="&#xb7;" horiz-adv-x="569" 
d="M285 756q51 0 87 -36t36 -86t-37 -87t-86 -37t-86 37t-37 87t36 86t87 36z" />
    <glyph glyph-name="cedilla" unicode="&#xb8;" horiz-adv-x="491" 
d="M467 -276q0 -78 -72 -123q-71 -45 -175 -45t-195 43l34 75q73 -32 135 -32q138 1 138 84q0 39 -33 58t-69 19t-85 -16l-41 39l127 174h93l-93 -131q6 0 23 4t63 4q47 0 99 -37q52 -38 51 -116z" />
    <glyph glyph-name="onesuperior" unicode="&#xb9;" horiz-adv-x="739" 
d="M354 592v721h-4l-166 -135l-67 94l254 190h118v-870h-135z" />
    <glyph glyph-name="ordmasculine" unicode="&#xba;" horiz-adv-x="790" 
d="M197 1172q0 -78 55 -136t143 -57q88 0 144 57q55 58 55 136t-55 135t-143 57t-144 -57q-55 -57 -55 -135zM395 1475q145 0 239 -84t95 -219q0 -136 -94 -220q-93 -84 -239 -84t-240 84t-95 220q1 135 95 219t239 84z" />
    <glyph glyph-name="guillemotright" unicode="&#xbb;" horiz-adv-x="1024" 
d="M500 127l239 365l-239 364l112 74l293 -438l-293 -439zM119 127l239 365l-239 364l112 74l293 -438l-293 -439z" />
    <glyph glyph-name="onequarter" unicode="&#xbc;" horiz-adv-x="1708" 
d="M317 592v723h-4l-166 -137l-67 94l254 190h119v-870h-136zM1378 295v416h-4l-272 -416h276zM305 0l909 1516l113 -66l-909 -1516zM1513 870v-575h115v-111h-115v-184h-135v184h-399v129l375 557h159z" />
    <glyph glyph-name="onehalf" unicode="&#xbd;" horiz-adv-x="1708" 
d="M1032 0v119l344 309q66 59 93 99q28 40 28 103q0 62 -43 102q-42 40 -106 40t-110 -37t-58 -100l-129 10q18 119 97 178t201 59q123 0 203 -65q80 -66 80 -190q0 -66 -30 -124t-60 -90q-31 -32 -92 -85l-246 -213v-4h436v-111h-608zM305 592v723h-4l-166 -137l-67 94
l254 190h118v-870h-135zM270 0l910 1516l112 -66l-909 -1516z" />
    <glyph glyph-name="threequarters" unicode="&#xbe;" horiz-adv-x="1708" 
d="M276 991v111h33q190 0 191 141q0 121 -146 121q-123 0 -166 -86l-112 51q72 145 278 146q119 -1 200 -61t81 -167q0 -68 -45 -123t-117 -75v-5q88 -12 140 -72t53 -145q0 -117 -89 -183t-223 -64q-240 0 -303 188l113 47q47 -125 190 -125q74 0 125 38t51 106
q0 158 -221 157h-33zM1407 295v416h-4l-273 -412v-4h277zM385 0l909 1516l113 -66l-909 -1516zM1542 870v-575h115v-111h-115v-184h-135v184h-399v129l374 557h160z" />
    <glyph glyph-name="questiondown" unicode="&#xbf;" horiz-adv-x="987" 
d="M514 762q-51 0 -87 36t-36 86t37 87t86 37t86 -37t37 -87t-36 -86t-87 -36zM96 -127q0 129 74 225q41 53 69 82t91 89q62 59 80 99t18 128v94h172v-129q0 -107 -26 -153t-74 -95t-77 -77q-28 -28 -60 -63t-39 -52q-8 -17 -26 -49t-17 -93q0 -99 58 -161q59 -62 159 -62
t167 60t83 163l184 -20q-27 -164 -147 -257q-119 -94 -291 -94t-285 96t-113 269z" />
    <glyph glyph-name="Agrave" unicode="&#xc0;" horiz-adv-x="1441" 
d="M649 1847l213 -295h-145l-293 295h225zM1016 516l-287 713h-4l-301 -713h592zM12 0l639 1450h162l617 -1450h-201l-148 356h-725l-149 -356h-195z" />
    <glyph glyph-name="Aacute" unicode="&#xc1;" horiz-adv-x="1441" 
d="M580 1552l213 295h225l-293 -295h-145zM1016 516l-287 713h-4l-301 -713h592zM12 0l639 1450h162l617 -1450h-201l-148 356h-725l-149 -356h-195z" />
    <glyph glyph-name="Acircumflex" unicode="&#xc2;" horiz-adv-x="1441" 
d="M399 1552l228 295h186l229 -295h-165l-162 209l-160 -209h-156zM1016 516l-287 713h-4l-301 -713h592zM12 0l639 1450h162l617 -1450h-201l-148 356h-725l-149 -356h-195z" />
    <glyph glyph-name="Atilde" unicode="&#xc3;" horiz-adv-x="1441" 
d="M866 1708q72 0 99 90h98q-15 -90 -61 -151t-116 -61t-173 40q-102 41 -142 41q-69 0 -94 -90h-98q14 88 67 150t132 63t205 -59q49 -23 83 -23zM1016 516l-287 713h-4l-301 -713h592zM12 0l639 1450h162l617 -1450h-201l-148 356h-725l-149 -356h-195z" />
    <glyph glyph-name="Adieresis" unicode="&#xc4;" horiz-adv-x="1441" 
d="M924 1798q46 0 78 -33t32 -77t-32 -78q-32 -33 -78 -33t-79 33q-32 33 -32 78q0 46 33 78t78 32zM518 1798q45 0 78 -33t33 -77t-32 -78q-32 -33 -79 -33t-79 33t-31 78q0 46 32 78t78 32zM1016 516l-287 713h-4l-301 -713h592zM12 0l639 1450h162l617 -1450h-201
l-148 356h-725l-149 -356h-195z" />
    <glyph glyph-name="Aring" unicode="&#xc5;" horiz-adv-x="1441" 
d="M604 1697q0 -48 36 -82t81 -34t81 34t36 82t-36 83t-81 35t-81 -35t-36 -83zM721 1495q-87 -1 -145 59t-58 143t58 143t146 60q87 0 144 -58q58 -60 58 -144t-58 -144t-145 -59zM1016 516l-287 713h-4l-301 -713h592zM12 0l639 1450h162l617 -1450h-201l-148 356h-725
l-149 -356h-195z" />
    <glyph glyph-name="AE" unicode="&#xc6;" horiz-adv-x="1933" 
d="M1038 553v737h-24l-473 -737h497zM1812 1450v-160h-602v-454h566v-160h-566v-516h627v-160h-799v393h-600l-252 -393h-206l942 1450h890z" />
    <glyph glyph-name="Ccedilla" unicode="&#xc7;" horiz-adv-x="1441" 
d="M834 1327q-238 0 -396 -179t-158 -429t156 -423t408 -173t409 203l129 -109q-188 -254 -548 -254l-66 -94q6 0 22 4t64 4t98 -37q52 -38 52 -116t-72 -123t-176 -45t-195 43l35 75q72 -32 134 -32q138 1 138 84q0 39 -32 58q-33 19 -69 19t-85 -16l-41 39l104 143
q-281 29 -465 240t-184 525t209 534q209 219 538 219t503 -227l-150 -109q-64 86 -160 131t-202 45z" />
    <glyph glyph-name="Egrave" unicode="&#xc8;" horiz-adv-x="1214" 
d="M537 1847l213 -295h-146l-293 295h226zM180 0v1450h912v-160h-740v-454h690v-160h-690v-516h776v-160h-948z" />
    <glyph glyph-name="Eacute" unicode="&#xc9;" horiz-adv-x="1214" 
d="M467 1552l213 295h225l-293 -295h-145zM180 0v1450h912v-160h-740v-454h690v-160h-690v-516h776v-160h-948z" />
    <glyph glyph-name="Ecircumflex" unicode="&#xca;" horiz-adv-x="1214" 
d="M287 1552l227 295h186l230 -295h-166l-162 209l-160 -209h-155zM180 0v1450h912v-160h-740v-454h690v-160h-690v-516h776v-160h-948z" />
    <glyph glyph-name="Edieresis" unicode="&#xcb;" horiz-adv-x="1214" 
d="M811 1798q45 0 78 -33t33 -77t-33 -78q-33 -33 -78 -33t-78 33t-33 78q0 46 33 78t78 32zM406 1798q46 0 78 -33t32 -77t-33 -78q-33 -33 -77 -33t-78 33q-33 33 -33 78q0 46 33 78t78 32zM180 0v1450h912v-160h-740v-454h690v-160h-690v-516h776v-160h-948z" />
    <glyph glyph-name="Igrave" unicode="&#xcc;" horiz-adv-x="532" 
d="M195 1847l213 -295h-146l-293 295h226zM180 0v1450h172v-1450h-172z" />
    <glyph glyph-name="Iacute" unicode="&#xcd;" horiz-adv-x="532" 
d="M125 1552l213 295h225l-293 -295h-145zM180 0v1450h172v-1450h-172z" />
    <glyph glyph-name="Icircumflex" unicode="&#xce;" horiz-adv-x="532" 
d="M-55 1552l227 295h186l230 -295h-166l-162 209l-160 -209h-155zM180 0v1450h172v-1450h-172z" />
    <glyph glyph-name="Idieresis" unicode="&#xcf;" horiz-adv-x="532" 
d="M469 1798q45 0 78 -33t33 -77t-32 -78q-32 -33 -79 -33t-79 33t-32 78q0 46 33 78t78 32zM63 1798q45 0 78 -33t33 -77t-32 -78q-32 -33 -79 -33t-79 33t-31 78q1 46 33 78t77 32zM180 0v1450h172v-1450h-172z" />
    <glyph glyph-name="Eth" unicode="&#xd0;" horiz-adv-x="1517" 
d="M326 1290v-467h516v-135h-516v-528h327q264 0 424 140t160 425t-160 425t-424 140h-327zM154 823v627h557q241 0 460 -161q111 -81 181 -227t70 -336t-70 -338q-70 -146 -181 -227q-221 -161 -460 -161h-557v688h-148v135h148z" />
    <glyph glyph-name="Ntilde" unicode="&#xd1;" horiz-adv-x="1593" 
d="M942 1708q72 0 98 90h99q-15 -90 -61 -151t-118 -61t-174 40q-102 41 -139 41q-69 0 -94 -90h-98q14 88 67 150q54 63 124 63t170 -41t126 -41zM180 0v1450h217l840 -1204h4v1204h172v-1450h-217l-840 1204h-4v-1204h-172z" />
    <glyph glyph-name="Ograve" unicode="&#xd2;" horiz-adv-x="1708" 
d="M782 1847l213 -295h-145l-293 295h225zM854 123q252 0 413 174t160 428q0 254 -160 428q-161 174 -413 174t-413 -174t-161 -428t162 -428q160 -174 412 -174zM854 -37q-330 0 -544 216t-214 546t214 546t544 216t544 -216t214 -546t-214 -546t-544 -216z" />
    <glyph glyph-name="Oacute" unicode="&#xd3;" horiz-adv-x="1708" 
d="M713 1552l213 295h225l-293 -295h-145zM854 123q252 0 413 174t160 428q0 254 -160 428q-161 174 -413 174t-413 -174t-161 -428t162 -428q160 -174 412 -174zM854 -37q-330 0 -544 216t-214 546t214 546t544 216t544 -216t214 -546t-214 -546t-544 -216z" />
    <glyph glyph-name="Ocircumflex" unicode="&#xd4;" horiz-adv-x="1708" 
d="M532 1552l228 295h186l230 -295h-166l-162 209l-160 -209h-156zM854 123q252 0 413 174t160 428q0 254 -160 428q-161 174 -413 174t-413 -174t-161 -428t162 -428q160 -174 412 -174zM854 -37q-330 0 -544 216t-214 546t214 546t544 216t544 -216t214 -546t-214 -546
t-544 -216z" />
    <glyph glyph-name="Otilde" unicode="&#xd5;" horiz-adv-x="1708" 
d="M999 1708q72 0 99 90h98q-14 -90 -60 -151t-118 -61t-174 40q-102 41 -139 41q-70 0 -95 -90h-98q14 88 68 150q54 63 124 63t170 -41t125 -41zM854 123q252 0 413 174t160 428q0 254 -160 428q-161 174 -413 174t-413 -174t-161 -428t162 -428q160 -174 412 -174z
M854 -37q-330 0 -544 216t-214 546t214 546t544 216t544 -216t214 -546t-214 -546t-544 -216z" />
    <glyph glyph-name="Odieresis" unicode="&#xd6;" horiz-adv-x="1708" 
d="M1057 1798q45 0 78 -33t33 -77t-34 -78q-32 -33 -77 -33t-78 33t-33 78q0 46 33 78t78 32zM651 1798q45 0 78 -33t33 -77t-33 -78q-33 -33 -78 -33t-78 33t-32 78q1 46 33 78t77 32zM854 123q252 0 413 174t160 428q0 254 -160 428q-161 174 -413 174t-413 -174
t-161 -428t162 -428q160 -174 412 -174zM854 -37q-330 0 -544 216t-214 546t214 546t544 216t544 -216t214 -546t-214 -546t-544 -216z" />
    <glyph glyph-name="multiply" unicode="&#xd7;" horiz-adv-x="1363" 
d="M289 1114l393 -395l395 395l99 -96l-398 -397l398 -394l-99 -100l-395 397l-395 -397l-99 96l396 398l-396 393z" />
    <glyph glyph-name="Oslash" unicode="&#xd8;" horiz-adv-x="1708" 
d="M96 734q0 320 214 537q214 216 544 216q270 0 471 -154l162 178l86 -77l-162 -177q201 -213 201 -537t-214 -541q-214 -216 -544 -216q-283 0 -483 162l-166 -180l-82 78l166 180q-193 211 -193 531zM854 1327q-252 0 -413 -174q-161 -175 -161 -415t130 -402l798 870
q-150 121 -354 121zM854 123q252 0 413 174q161 175 161 419t-138 410l-801 -872q152 -131 365 -131z" />
    <glyph glyph-name="Ugrave" unicode="&#xd9;" horiz-adv-x="1441" 
d="M649 1847l213 -295h-145l-293 295h225zM1268 1450v-897q0 -260 -133 -425t-414 -165t-414 165t-133 425v897h172v-872q0 -188 82 -321q82 -134 292 -134q211 0 292 132t84 323v872h172z" />
    <glyph glyph-name="Uacute" unicode="&#xda;" horiz-adv-x="1441" 
d="M580 1552l213 295h225l-293 -295h-145zM1268 1450v-897q0 -260 -133 -425t-414 -165t-414 165t-133 425v897h172v-872q0 -188 82 -321q82 -134 292 -134q211 0 292 132t84 323v872h172z" />
    <glyph glyph-name="Ucircumflex" unicode="&#xdb;" horiz-adv-x="1441" 
d="M399 1552l228 295h186l229 -295h-165l-162 209l-160 -209h-156zM1268 1450v-897q0 -260 -133 -425t-414 -165t-414 165t-133 425v897h172v-872q0 -188 82 -321q82 -134 292 -134q211 0 292 132t84 323v872h172z" />
    <glyph glyph-name="Udieresis" unicode="&#xdc;" horiz-adv-x="1441" 
d="M924 1798q46 0 78 -33t32 -77t-32 -78q-32 -33 -78 -33t-79 33q-32 33 -32 78q0 46 33 78t78 32zM518 1798q45 0 78 -33t33 -77t-32 -78q-32 -33 -79 -33t-79 33t-31 78q0 46 32 78t78 32zM1268 1450v-897q0 -260 -133 -425t-414 -165t-414 165t-133 425v897h172v-872
q0 -188 82 -321q82 -134 292 -134q211 0 292 132t84 323v872h172z" />
    <glyph glyph-name="Yacute" unicode="&#xdd;" horiz-adv-x="1216" 
d="M467 1552l213 295h225l-293 -295h-145zM522 0v625l-540 825h219l407 -655l420 655h207l-541 -825v-625h-172z" />
    <glyph glyph-name="Thorn" unicode="&#xde;" horiz-adv-x="1214" 
d="M352 1034v-479h291q133 0 212 60q79 59 79 179t-79 180t-212 60h-291zM180 0v1450h172v-256h258q224 0 366 -93t142 -304q0 -305 -313 -382q-78 -19 -162 -20h-291v-395h-172z" />
    <glyph glyph-name="germandbls" unicode="&#xdf;" horiz-adv-x="1214" 
d="M152 0v1106q0 205 110 336q111 131 338 131q174 0 288 -97t113 -268q0 -116 -58 -200t-167 -123v-4q164 -15 256 -139t92 -296q0 -213 -138 -342t-351 -129q-74 0 -127 19v145q47 -16 106 -16q154 0 246 93t92 250t-100 250t-262 93h-47v135h45q114 0 184 67t70 177
t-71 174q-71 63 -179 63q-281 0 -281 -333v-1092h-159z" />
    <glyph glyph-name="agrave" unicode="&#xe0;" horiz-adv-x="1062" 
d="M461 1483l213 -295h-146l-292 295h225zM762 461h-160q-334 0 -334 -185q0 -166 211 -165q131 0 205 83t78 205v62zM506 983q222 0 319 -100q96 -100 97 -305v-412q0 -80 14 -166h-154q-10 43 -10 143h-4q-109 -168 -315 -168q-154 0 -255 75q-102 75 -102 220t107 219
t233 90q126 17 264 17h62v29q0 102 -62 156t-176 55q-171 -1 -284 -105l-101 105q145 147 367 147z" />
    <glyph glyph-name="aacute" unicode="&#xe1;" horiz-adv-x="1062" 
d="M391 1188l213 295h225l-292 -295h-146zM762 461h-160q-334 0 -334 -185q0 -166 211 -165q131 0 205 83t78 205v62zM506 983q222 0 319 -100q96 -100 97 -305v-412q0 -80 14 -166h-154q-10 43 -10 143h-4q-109 -168 -315 -168q-154 0 -255 75q-102 75 -102 220t107 219
t233 90q126 17 264 17h62v29q0 102 -62 156t-176 55q-171 -1 -284 -105l-101 105q145 147 367 147z" />
    <glyph glyph-name="acircumflex" unicode="&#xe2;" horiz-adv-x="1062" 
d="M211 1188l227 295h187l229 -295h-166l-162 209l-159 -209h-156zM762 461h-160q-334 0 -334 -185q0 -166 211 -165q131 0 205 83t78 205v62zM506 983q222 0 319 -100q96 -100 97 -305v-412q0 -80 14 -166h-154q-10 43 -10 143h-4q-109 -168 -315 -168q-154 0 -255 75
q-102 75 -102 220t107 219t233 90q126 17 264 17h62v29q0 102 -62 156t-176 55q-171 -1 -284 -105l-101 105q145 147 367 147z" />
    <glyph glyph-name="atilde" unicode="&#xe3;" horiz-adv-x="1062" 
d="M382 1425q70 0 170 -41t126 -41q72 0 98 91h98q-14 -90 -60 -152t-116 -61q-70 0 -174 41q-102 41 -141 41q-69 -1 -94 -91h-99q14 88 68 150t124 63zM762 461h-160q-334 0 -334 -185q0 -166 211 -165q131 0 205 83t78 205v62zM506 983q222 0 319 -100q96 -100 97 -305
v-412q0 -80 14 -166h-154q-10 43 -10 143h-4q-109 -168 -315 -168q-154 0 -255 75q-102 75 -102 220t107 219t233 90q126 17 264 17h62v29q0 102 -62 156t-176 55q-171 -1 -284 -105l-101 105q145 147 367 147z" />
    <glyph glyph-name="adieresis" unicode="&#xe4;" horiz-adv-x="1062" 
d="M735 1434q45 0 78 -33t33 -78t-32 -78t-79 -33t-79 33t-31 78q0 45 32 78q33 33 78 33zM330 1434q45 0 78 -33q32 -33 32 -78t-32 -78t-78 -33q-47 0 -79 33t-32 78t33 78t78 33zM762 461h-160q-334 0 -334 -185q0 -166 211 -165q131 0 205 83t78 205v62zM506 983
q222 0 319 -100q96 -100 97 -305v-412q0 -80 14 -166h-154q-10 43 -10 143h-4q-109 -168 -315 -168q-154 0 -255 75q-102 75 -102 220t107 219t233 90q126 17 264 17h62v29q0 102 -62 156t-176 55q-171 -1 -284 -105l-101 105q145 147 367 147z" />
    <glyph glyph-name="aring" unicode="&#xe5;" horiz-adv-x="1062" 
d="M416 1353q0 -48 36 -82t80 -34t81 34q36 34 36 82t-36 83q-36 34 -81 34q-44 0 -80 -34t-36 -83zM735 1354q0 -84 -58 -144q-59 -60 -145 -59q-86 -1 -144 59t-58 143t58 143t145 60t145 -59t57 -143zM762 461h-160q-334 0 -334 -185q0 -166 211 -165q131 0 205 83
t78 205v62zM506 983q222 0 319 -100q96 -100 97 -305v-412q0 -80 14 -166h-154q-10 43 -10 143h-4q-109 -168 -315 -168q-154 0 -255 75q-102 75 -102 220t107 219t233 90q126 17 264 17h62v29q0 102 -62 156t-176 55q-171 -1 -284 -105l-101 105q145 147 367 147z" />
    <glyph glyph-name="ae" unicode="&#xe6;" horiz-adv-x="1744" 
d="M1206 836q-122 0 -202 -84t-84 -187h567q-4 123 -81 197t-200 74zM772 430h-240q-182 0 -239 -81q-25 -34 -25 -79q0 -76 66 -112t174 -35q108 0 186 78t78 202v27zM1198 -25q-129 -1 -225 61t-139 146q-104 -207 -383 -207q-141 0 -248 73q-106 73 -107 216
q0 301 479 301h197v25q0 110 -61 178t-197 68t-262 -95l-102 107q158 135 386 135t328 -162q154 162 350 162t321 -133q124 -133 124 -369v-51h-739q2 -127 80 -217t198 -90q190 0 305 145l121 -94q-154 -199 -426 -199z" />
    <glyph glyph-name="ccedilla" unicode="&#xe7;" horiz-adv-x="987" 
d="M587 836q-151 0 -235 -100t-84 -255q0 -154 90 -256t241 -102t237 119l118 -113q-125 -143 -325 -149l-78 -111q6 0 22 4q15 4 63 4t99 -37q51 -38 51 -116t-72 -123t-174 -45q-104 0 -196 43l35 75q72 -32 134 -32q138 1 138 84q0 39 -33 58q-32 19 -68 19t-85 -16
l-41 39l113 156q-199 14 -320 151t-121 351t138 356t363 143q225 0 364 -152l-127 -112q-96 117 -247 117z" />
    <glyph glyph-name="egrave" unicode="&#xe8;" 
d="M498 1483l213 -295h-146l-293 295h226zM582 836q-130 0 -214 -74t-100 -197h602q-4 123 -80 197q-77 74 -208 74zM582 -25q-218 1 -352 145t-134 362t140 360t349 141q210 0 334 -133t123 -369v-51h-774q10 -127 98 -217t216 -90q190 0 305 145l121 -94
q-154 -199 -426 -199z" />
    <glyph glyph-name="eacute" unicode="&#xe9;" 
d="M428 1188l213 295h225l-293 -295h-145zM582 836q-130 0 -214 -74t-100 -197h602q-4 123 -80 197q-77 74 -208 74zM582 -25q-218 1 -352 145t-134 362t140 360t349 141q210 0 334 -133t123 -369v-51h-774q10 -127 98 -217t216 -90q190 0 305 145l121 -94
q-154 -199 -426 -199z" />
    <glyph glyph-name="ecircumflex" unicode="&#xea;" 
d="M248 1188l227 295h187l229 -295h-166l-162 209l-160 -209h-155zM582 836q-130 0 -214 -74t-100 -197h602q-4 123 -80 197q-77 74 -208 74zM582 -25q-218 1 -352 145t-134 362t140 360t349 141q210 0 334 -133t123 -369v-51h-774q10 -127 98 -217t216 -90q190 0 305 145
l121 -94q-154 -199 -426 -199z" />
    <glyph glyph-name="edieresis" unicode="&#xeb;" 
d="M772 1434q45 0 78 -33t33 -78t-32 -78t-79 -33t-79 33t-31 78q0 45 32 78q33 33 78 33zM367 1434q45 0 77 -33t33 -78q0 -45 -32 -78q-33 -33 -79 -33t-78 33t-32 78t33 78t78 33zM582 836q-130 0 -214 -74t-100 -197h602q-4 123 -80 197q-77 74 -208 74zM582 -25
q-218 1 -352 145t-134 362t140 360t349 141q210 0 334 -133t123 -369v-51h-774q10 -127 98 -217t216 -90q190 0 305 145l121 -94q-154 -199 -426 -199z" />
    <glyph glyph-name="igrave" unicode="&#xec;" horiz-adv-x="491" 
d="M174 1483l213 -295h-145l-293 295h225zM166 0v958h160v-958h-160z" />
    <glyph glyph-name="iacute" unicode="&#xed;" horiz-adv-x="491" 
d="M104 1188l213 295h226l-293 -295h-146zM166 0v958h160v-958h-160z" />
    <glyph glyph-name="icircumflex" unicode="&#xee;" horiz-adv-x="491" 
d="M-76 1188l228 295h186l229 -295h-166l-161 209l-160 -209h-156zM166 0v958h160v-958h-160z" />
    <glyph glyph-name="idieresis" unicode="&#xef;" horiz-adv-x="491" 
d="M449 1434q45 0 77 -33t33 -78q0 -45 -32 -78q-33 -33 -79 -33t-78 33t-32 78t33 78t78 33zM43 1434q45 0 78 -33t33 -78t-32 -78t-79 -33t-79 33t-32 78t33 78t78 33zM166 0v958h160v-958h-160z" />
    <glyph glyph-name="eth" unicode="&#xf0;" horiz-adv-x="1216" 
d="M268 479q0 -154 94 -255t246 -101t246 101t94 255t-94 255q-94 102 -246 102t-246 -102t-94 -255zM622 -25q-236 1 -381 141q-144 140 -145 363q0 223 144 363t368 141q166 0 266 -100l3 4q-92 172 -310 389l-219 -111l-86 84l217 109q-76 72 -180 155l141 82
q115 -96 187 -163l219 110l94 -80l-227 -114q193 -182 301 -370t106 -440q0 -253 -131 -408t-367 -155z" />
    <glyph glyph-name="ntilde" unicode="&#xf1;" 
d="M294 1362q54 62 130 63q76 0 163 -40q88 -40 128 -42q72 0 98 91h98q-14 -90 -60 -152q-47 -62 -117 -61q-70 0 -174 41t-140 41q-69 -1 -94 -91h-99q13 88 67 150zM623 983q182 0 273 -105t91 -286v-592h-160v575q0 123 -55 192t-164 69q-150 0 -224 -98t-73 -271v-467
h-159v731l-9 227h152l4 -157h4q35 76 121 129t199 53z" />
    <glyph glyph-name="ograve" unicode="&#xf2;" horiz-adv-x="1216" 
d="M537 1483l213 -295h-146l-293 295h226zM268 479q0 -154 94 -255t246 -101t246 101t94 255t-94 255q-94 102 -246 102t-246 -102t-94 -255zM96 479q0 223 144 363t368 141q224 0 368 -140q144 -139 144 -363t-144 -364t-368 -140t-368 140t-144 363z" />
    <glyph glyph-name="oacute" unicode="&#xf3;" horiz-adv-x="1216" 
d="M467 1188l213 295h225l-293 -295h-145zM268 479q0 -154 94 -255t246 -101t246 101t94 255t-94 255q-94 102 -246 102t-246 -102t-94 -255zM96 479q0 223 144 363t368 141q224 0 368 -140q144 -139 144 -363t-144 -364t-368 -140t-368 140t-144 363z" />
    <glyph glyph-name="ocircumflex" unicode="&#xf4;" horiz-adv-x="1216" 
d="M287 1188l227 295h186l230 -295h-166l-162 209l-160 -209h-155zM268 479q0 -154 94 -255t246 -101t246 101t94 255t-94 255q-94 102 -246 102t-246 -102t-94 -255zM96 479q0 223 144 363t368 141q224 0 368 -140q144 -139 144 -363t-144 -364t-368 -140t-368 140
t-144 363z" />
    <glyph glyph-name="otilde" unicode="&#xf5;" horiz-adv-x="1216" 
d="M334 1362q54 62 129 63q76 0 163 -40q88 -40 128 -42q72 0 98 91h98q-14 -90 -60 -152t-118 -61q-72 0 -174 41t-139 41q-69 -1 -94 -91h-99q14 88 68 150zM268 479q0 -154 94 -255t246 -101t246 101t94 255t-94 255q-94 102 -246 102t-246 -102t-94 -255zM96 479
q0 223 144 363t368 141q224 0 368 -140q144 -139 144 -363t-144 -364t-368 -140t-368 140t-144 363z" />
    <glyph glyph-name="odieresis" unicode="&#xf6;" horiz-adv-x="1216" 
d="M811 1434q45 0 78 -33t33 -78t-33 -78t-78 -33t-78 33t-33 78t33 78t78 33zM406 1434q46 0 78 -33t32 -78t-33 -78t-77 -33t-78 33q-33 33 -33 78t33 78t78 33zM268 479q0 -154 94 -255t246 -101t246 101t94 255t-94 255q-94 102 -246 102t-246 -102t-94 -255zM96 479
q0 223 144 363t368 141q224 0 368 -140q144 -139 144 -363t-144 -364t-368 -140t-368 140t-144 363z" />
    <glyph glyph-name="divide" unicode="&#xf7;" horiz-adv-x="1363" 
d="M565 284q0 48 35 82t82 34t82 -36q35 -34 35 -82t-35 -82t-82 -34t-82 35t-35 83zM682 842q-47 0 -82 34t-35 83q0 48 35 82t82 34t82 -35t35 -83q0 -47 -35 -81t-82 -34zM147 553v135h1070v-135h-1070z" />
    <glyph glyph-name="oslash" unicode="&#xf8;" horiz-adv-x="1216" 
d="M96 490q0 212 144 352t350 141q206 0 344 -104l137 141l70 -66l-137 -141q116 -137 116 -347t-144 -350t-351 -140t-340 106l-140 -143l-69 65l139 143q-119 131 -119 343zM620 123q140 0 234 101q94 100 94 240t-63 228l-490 -497q85 -72 225 -72zM594 836
q-138 0 -232 -102t-94 -240q0 -140 64 -228l489 498q-89 72 -227 72z" />
    <glyph glyph-name="ugrave" unicode="&#xf9;" 
d="M498 1483l213 -295h-146l-293 295h226zM152 367v591h159v-575q-1 -123 55 -192t164 -68q150 0 224 98t73 271v466h160v-731l8 -227h-151l-4 158h-4q-35 -76 -121 -129t-199 -54q-182 -1 -273 105t-91 287z" />
    <glyph glyph-name="uacute" unicode="&#xfa;" 
d="M428 1188l213 295h225l-293 -295h-145zM152 367v591h159v-575q-1 -123 55 -192t164 -68q150 0 224 98t73 271v466h160v-731l8 -227h-151l-4 158h-4q-35 -76 -121 -129t-199 -54q-182 -1 -273 105t-91 287z" />
    <glyph glyph-name="ucircumflex" unicode="&#xfb;" 
d="M248 1188l227 295h187l229 -295h-166l-162 209l-160 -209h-155zM152 367v591h159v-575q-1 -123 55 -192t164 -68q150 0 224 98t73 271v466h160v-731l8 -227h-151l-4 158h-4q-35 -76 -121 -129t-199 -54q-182 -1 -273 105t-91 287z" />
    <glyph glyph-name="udieresis" unicode="&#xfc;" 
d="M772 1434q45 0 78 -33t33 -78t-32 -78t-79 -33t-79 33t-31 78q0 45 32 78q33 33 78 33zM367 1434q45 0 77 -33t33 -78q0 -45 -32 -78q-33 -33 -79 -33t-78 33t-32 78t33 78t78 33zM152 367v591h159v-575q-1 -123 55 -192t164 -68q150 0 224 98t73 271v466h160v-731
l8 -227h-151l-4 158h-4q-35 -76 -121 -129t-199 -54q-182 -1 -273 105t-91 287z" />
    <glyph glyph-name="yacute" unicode="&#xfd;" horiz-adv-x="987" 
d="M352 1188l213 295h226l-293 -295h-146zM204 -492q-112 0 -163 25l20 139q43 -16 114 -16t110 39t67 119l66 180l-398 964h187l297 -751h4l285 751h174l-463 -1177q-55 -141 -121 -207q-67 -66 -179 -66z" />
    <glyph glyph-name="thorn" unicode="&#xfe;" horiz-adv-x="1251" 
d="M303 479q0 -154 94 -255t246 -101t246 101t94 255t-94 255q-94 102 -246 102t-246 -102t-94 -255zM143 -467v2015h160v-729h4q141 164 354 164t353 -142q140 -141 141 -359q0 -218 -138 -362t-341 -145q-125 -1 -223 55t-146 140h-4v-637h-160z" />
    <glyph glyph-name="ydieresis" unicode="&#xff;" horiz-adv-x="987" 
d="M696 1434q45 0 78 -33t33 -78t-33 -78t-78 -33t-78 33t-32 78q0 45 32 78q33 33 78 33zM291 1434q45 0 78 -33t33 -78t-34 -78q-32 -33 -77 -33t-78 33t-33 78t33 78t78 33zM204 -492q-112 0 -163 25l20 139q43 -16 114 -16t110 39t67 119l66 180l-398 964h187l297 -751
h4l285 751h174l-463 -1177q-55 -141 -121 -207q-67 -66 -179 -66z" />
    <glyph glyph-name="dotlessi" unicode="&#x131;" horiz-adv-x="491" 
d="M166 0v958h160v-958h-160z" />
    <glyph glyph-name="Lslash" unicode="&#x141;" horiz-adv-x="1024" 
d="M180 0v453l-160 -138v162l160 137v836h172v-688l443 381v-162l-443 -381v-440h664v-160h-836z" />
    <glyph glyph-name="lslash" unicode="&#x142;" horiz-adv-x="491" 
d="M166 0v631l-166 -166v168l166 166v749h160v-590l166 166v-166l-166 -165v-793h-160z" />
    <glyph glyph-name="OE" unicode="&#x152;" horiz-adv-x="1972" 
d="M1061 160v1130h-135q-305 0 -467 -168t-162 -397t162 -397t467 -168h135zM1233 1290v-454h577v-160h-577v-516h627v-160h-942q-193 0 -350 60q-290 111 -403 393q-52 129 -52 272q0 292 201 503q97 102 254 162t350 60h929v-160h-614z" />
    <glyph glyph-name="oe" unicode="&#x153;" horiz-adv-x="1857" 
d="M1331 836q-123 0 -203 -84t-84 -187h568q-4 123 -81 197t-200 74zM246 482q0 -150 84 -254t238 -105q154 0 242 101q87 101 87 253t-85 255q-85 104 -240 104q-154 0 -240 -102t-86 -252zM1784 430h-740q2 -127 81 -217t198 -90q190 0 305 145l121 -94
q-154 -199 -426 -199q-238 0 -356 197q-147 -197 -384 -197q-237 1 -373 139t-136 360t138 366t355 143q250 0 400 -192q149 193 359 193t334 -134q124 -133 124 -369v-51z" />
    <glyph glyph-name="Scaron" unicode="&#x160;" 
d="M889 1847l-225 -295h-187l-227 295h166l159 -209l158 209h156zM604 1327q-127 0 -218 -61t-91 -171q1 -110 65 -166q64 -55 205 -101t201 -70t131 -74q137 -93 137 -298q0 -204 -148 -314t-362 -109q-137 0 -257 49t-189 152l147 121q45 -78 129 -120t193 -42
q109 -1 206 67t97 185q0 61 -17 102t-71 75t-98 51q-45 17 -113 39t-80 28q-176 57 -268 145t-92 254q0 199 144 309t349 109q261 0 406 -170l-142 -123q-82 133 -264 133z" />
    <glyph glyph-name="scaron" unicode="&#x161;" horiz-adv-x="872" 
d="M756 1483l-226 -295h-186l-227 295h166l159 -209l158 209h156zM418 123q84 0 147 37t63 111t-65 106q-50 24 -137 45q-88 20 -134 34q-143 45 -181 124q-25 49 -25 120q0 133 106 208t252 75q233 0 326 -174l-133 -88q-70 115 -203 115q-74 0 -131 -35t-57 -99
q0 -92 241 -139q150 -29 232 -91t82 -205t-112 -217t-255 -75q-143 1 -232 41t-157 138l127 98q104 -129 246 -129z" />
    <glyph glyph-name="Ydieresis" unicode="&#x178;" horiz-adv-x="1216" 
d="M811 1798q45 0 78 -33t33 -77t-33 -78q-33 -33 -78 -33t-78 33t-33 78q0 46 33 78t78 32zM406 1798q46 0 78 -33t32 -77t-33 -78q-33 -33 -77 -33t-78 33q-33 33 -33 78q0 46 33 78t78 32zM522 0v625l-540 825h219l407 -655l420 655h207l-541 -825v-625h-172z" />
    <glyph glyph-name="Zcaron" unicode="&#x17d;" horiz-adv-x="1175" 
d="M907 1847l-225 -295h-186l-228 295h166l160 -209l158 209h155zM59 0v154l838 1136h-825v160h1034v-147l-838 -1143h848v-160h-1057z" />
    <glyph glyph-name="zcaron" unicode="&#x17e;" horiz-adv-x="909" 
d="M774 1483l-225 -295h-187l-227 295h166l160 -209l157 209h156zM61 0v125l564 698h-539v135h748v-122l-564 -701h578v-135h-787z" />
    <glyph glyph-name="florin" unicode="&#x192;" 
d="M883 870v-135h-258l-133 -704q-31 -158 -107 -242t-229 -84q-98 0 -176 49l73 129q45 -31 99 -31q102 1 137 75q22 45 43 145l123 663h-222v135h248l43 226q31 164 92 261q75 118 244 118q109 0 205 -58l-76 -127q-63 37 -113 37q-99 0 -138 -79q-26 -54 -46 -152
l-43 -226h234z" />
    <glyph glyph-name="circumflex" unicode="&#x2c6;" horiz-adv-x="491" 
d="M-76 1155l228 295h186l229 -295h-166l-161 209l-160 -209h-156z" />
    <glyph glyph-name="caron" unicode="&#x2c7;" horiz-adv-x="491" 
d="M565 1450l-225 -295h-186l-228 295h166l160 -209l158 209h155z" />
    <glyph glyph-name="uni02C9" unicode="&#x2c9;" horiz-adv-x="491" 
d="M528 1352v-123h-565v123h565z" />
    <glyph glyph-name="breve" unicode="&#x2d8;" horiz-adv-x="491" 
d="M248 1278q88 0 140 37t73 123h98q-14 -131 -98 -201t-217 -70q-132 0 -218 71t-94 200h101q14 -78 71 -119q56 -41 144 -41z" />
    <glyph glyph-name="dotaccent" unicode="&#x2d9;" horiz-adv-x="491" 
d="M246 1401q45 0 78 -33q32 -33 32 -78t-32 -78q-32 -32 -79 -32q-46 0 -78 32t-32 77q0 46 33 79t78 33z" />
    <glyph glyph-name="ring" unicode="&#x2da;" horiz-adv-x="491" 
d="M129 1320q0 -48 36 -82t81 -34t81 34q35 34 35 82t-35 83q-36 35 -81 35t-81 -35t-36 -83zM43 1320q0 83 58 143q57 61 145 61t145 -60t57 -143q0 -84 -58 -143q-58 -60 -144 -60t-144 60t-59 142z" />
    <glyph glyph-name="ogonek" unicode="&#x2db;" horiz-adv-x="491" 
d="M172 -224q0 -108 106 -107q54 1 95 42l43 -84q-84 -80 -176 -80q-92 -1 -147 49q-56 50 -56 128t56 153q56 76 130 123h105q-57 -41 -107 -105q-49 -65 -49 -119z" />
    <glyph glyph-name="tilde" unicode="&#x2dc;" horiz-adv-x="491" 
d="M391 1311q72 0 98 90h99q-14 -89 -60 -151t-118 -62q-70 0 -172 41t-142 41q-69 0 -94 -90h-98q14 88 67 150t124 62t171 -40q100 -41 125 -41z" />
    <glyph glyph-name="hungarumlaut" unicode="&#x2dd;" horiz-adv-x="491" 
d="M707 1450l-293 -295h-140l224 295h209zM356 1450l-264 -295h-137l205 295h196z" />
    <glyph glyph-name="uni03A9" unicode="&#x3a9;" horiz-adv-x="1474" 
d="M406 127v6q-121 109 -199 275t-78 368q0 303 175 497q175 193 440 193t432 -200q166 -201 165 -480q-1 -211 -81 -383t-199 -270v-6h309v-127h-491v94q129 88 218 260t89 400t-120 405q-120 178 -325 178t-331 -168t-125 -401q0 -232 91 -412t216 -262v-94h-492v127h306z
" />
    <glyph glyph-name="uni03BC" unicode="&#x3bc;" 
d="M311 -467h-159v1425h159v-575q-1 -123 55 -192t164 -68q150 0 224 98t73 271v466h160v-731l8 -227h-151l-4 158h-4q-35 -76 -121 -129t-201 -53t-203 51v-494z" />
    <glyph glyph-name="pi" unicode="&#x3c0;" horiz-adv-x="1169" 
d="M950 942v-639q0 -193 29 -303h-150q-35 66 -34 291v651h-371q-10 -225 -53 -515t-97 -427h-151q55 162 98 442t49 500q-158 0 -227 -27l-25 105q92 55 295 55h815l-14 -133h-164z" />
    <glyph glyph-name="endash" unicode="&#x2013;" horiz-adv-x="1024" 
d="M1024 565v-147h-1024v147h1024z" />
    <glyph glyph-name="emdash" unicode="&#x2014;" horiz-adv-x="2048" 
d="M0 418v147h2048v-147h-2048z" />
    <glyph glyph-name="quoteleft" unicode="&#x2018;" horiz-adv-x="569" 
d="M123 958l168 492h155l-137 -492h-186z" />
    <glyph glyph-name="quoteright" unicode="&#x2019;" horiz-adv-x="569" 
d="M446 1450l-167 -492h-156l137 492h186z" />
    <glyph glyph-name="quotesinglbase" unicode="&#x201a;" horiz-adv-x="569" 
d="M446 209l-167 -492h-156l137 492h186z" />
    <glyph glyph-name="quotedblleft" unicode="&#x201c;" horiz-adv-x="1062" 
d="M561 958l168 492h156l-137 -492h-187zM178 958l168 492h156l-137 -492h-187z" />
    <glyph glyph-name="quotedblright" unicode="&#x201d;" horiz-adv-x="1062" 
d="M885 1450l-168 -492h-156l137 492h187zM502 1450l-168 -492h-156l137 492h187z" />
    <glyph glyph-name="quotedblbase" unicode="&#x201e;" horiz-adv-x="1062" 
d="M885 209l-168 -492h-156l137 492h187zM502 209l-168 -492h-156l137 492h187z" />
    <glyph glyph-name="dagger" unicode="&#x2020;" 
d="M649 1450v-416h418v-135h-418v-1157h-160v1157h-417v135h417v416h160z" />
    <glyph glyph-name="daggerdbl" unicode="&#x2021;" 
d="M649 1450v-393h406v-135h-406v-652h406v-135h-406v-393h-160v393h-405v135h405v652h-405v135h405v393h160z" />
    <glyph glyph-name="bullet" unicode="&#x2022;" horiz-adv-x="1024" 
d="M150 725q0 152 105 257t257 105t257 -105t105 -257t-105 -257q-105 -106 -257 -106t-257 106t-105 257z" />
    <glyph glyph-name="ellipsis" unicode="&#x2026;" horiz-adv-x="2048" 
d="M1706 233q51 1 87 -35t36 -86t-37 -87t-86 -37t-86 37t-37 87t36 86t87 35zM1024 233q51 1 87 -35t36 -86t-37 -87t-86 -37t-86 37t-37 87t36 86t87 35zM342 233q51 1 87 -35t36 -86t-37 -87t-86 -37t-86 37t-37 87t36 86t87 35z" />
    <glyph glyph-name="perthousand" unicode="&#x2030;" horiz-adv-x="2084" 
d="M166 0l909 1516l113 -66l-909 -1516zM172 1153q0 -74 56 -130t130 -56t130 56t57 130q-1 74 -57 130t-130 56t-130 -56t-56 -130zM37 1152q0 132 95 227t226 95q130 0 226 -94q96 -96 96 -228t-94 -226t-228 -94t-227 94q-94 94 -94 226zM1540 295q0 -74 56 -130t130 -56
t131 56q56 56 56 130t-56 130q-57 56 -131 56t-130 -56t-56 -130zM1405 296q0 132 95 227t226 95q130 0 226 -95t96 -227t-94 -226t-228 -94t-227 94q-94 94 -94 226zM803 297q0 -74 56 -130t130 -56t130 56t57 130q0 74 -56 130t-131 56q-74 0 -130 -56t-56 -130zM668 296
q0 132 95 227t226 95t226 -95t95 -227t-93 -226t-227 -94t-228 94t-94 226z" />
    <glyph glyph-name="guilsinglleft" unicode="&#x2039;" horiz-adv-x="643" 
d="M524 856l-239 -364l239 -365l-112 -74l-293 439l293 438z" />
    <glyph glyph-name="guilsinglright" unicode="&#x203a;" horiz-adv-x="643" 
d="M119 127l239 365l-239 364l112 74l293 -438l-293 -439z" />
    <glyph glyph-name="fraction" unicode="&#x2044;" horiz-adv-x="342" 
d="M-340 0l909 1516l113 -66l-909 -1516z" />
    <glyph glyph-name="Euro" unicode="&#x20ac;" 
d="M780 1333q-150 0 -250 -90t-143 -262h567l-30 -121h-559q-15 -123 -7 -270h496l-33 -117h-448q61 -360 346 -360q154 0 258 127l94 -93q-55 -75 -152 -123t-212 -49q-207 0 -338 127t-172 371h-150l37 117h98q-4 78 -4 142t8 128h-135l39 121h119q55 238 206 366t357 128
q84 1 170 -21t133 -53l-43 -144q-102 76 -252 76z" />
    <glyph glyph-name="afii61289" unicode="&#x2113;" horiz-adv-x="993" 
d="M371 1108v-455q315 348 315 602q0 221 -147 222q-68 1 -118 -89t-50 -280zM565 -14q-166 0 -250 108t-90 275v26q-16 -12 -56 -46t-63 -50l-47 90q131 109 164 141v568q0 258 91 377q90 119 220 119t194 -95q64 -94 65 -242q0 -342 -422 -757v-70q2 -162 65 -242
q64 -80 156 -80t164 60q71 59 116 141l74 -65q-135 -258 -381 -258z" />
    <glyph glyph-name="trademark" unicode="&#x2122;" horiz-adv-x="2027" 
d="M969 606v844h215l252 -641l252 641h208v-844h-135v709h-4l-278 -709h-93l-278 709h-4v-709h-135zM397 606v709h-266v135h668v-135h-267v-709h-135z" />
    <glyph glyph-name="Omega" unicode="&#x2126;" horiz-adv-x="1474" 
d="M406 127v6q-121 109 -199 275t-78 368q0 303 175 497q175 193 440 193t432 -200q166 -201 165 -480q-1 -211 -81 -383t-199 -270v-6h309v-127h-491v94q129 88 218 260t89 400t-120 405q-120 178 -325 178t-331 -168t-125 -401q0 -232 91 -412t216 -262v-94h-492v127h306z
" />
    <glyph glyph-name="estimated" unicode="&#x212e;" horiz-adv-x="1808" 
d="M1430 758v409q0 29 -21 50q-217 213 -508 213t-506 -220q-18 -23 -18 -51v-401q0 -14 10 -15h1034q9 1 9 15zM1735 705h-1348q-10 0 -10 -11v-407q0 -25 16 -47q215 -221 510 -222q158 0 297 67t240 181h121q-115 -133 -289 -211t-371 -78q-344 -1 -588 219t-243 529
q0 309 243 529q244 220 589 220t589 -218q244 -220 244 -531v-20z" />
    <glyph glyph-name="partialdiff" unicode="&#x2202;" horiz-adv-x="1120" 
d="M494 113h2q139 -1 233 153t115 373q-27 82 -108 154q-82 71 -198 71t-206 -119t-90 -277t68 -257q68 -98 184 -98zM506 1622q206 0 358 -203t152 -581t-139 -616q-139 -239 -396 -238q-188 0 -291 142q-102 142 -102 335q0 236 128 382t308 146q125 -1 213 -65t123 -131
h2q4 25 4 90q0 268 -112 439q-114 171 -268 171t-277 -100l-53 112q143 117 350 117z" />
    <glyph glyph-name="Delta" unicode="&#x2206;" horiz-adv-x="1327" 
d="M221 127h875l-297 791q-16 49 -69 191q-52 142 -66 194h-9q-10 -43 -58 -175t-62 -178zM63 0v106l515 1377h178l506 -1377v-106h-1199z" />
    <glyph glyph-name="product" unicode="&#x220f;" horiz-adv-x="1433" 
d="M1378 1303h-225v-1502h-152v1502h-573v-1502h-152v1502h-223v141h1325v-141z" />
    <glyph glyph-name="summation" unicode="&#x2211;" horiz-adv-x="1132" 
d="M1087 -199h-1040v103l551 717l-526 714v109h983v-133h-770v-8l489 -660l-530 -690v-6h843v-146z" />
    <glyph glyph-name="minus" unicode="&#x2212;" horiz-adv-x="1363" 
d="M147 688h1070v-135h-1070v135z" />
    <glyph glyph-name="uni2215" unicode="&#x2215;" horiz-adv-x="342" 
d="M-340 0l909 1516l113 -66l-909 -1516z" />
    <glyph glyph-name="uni2219" unicode="&#x2219;" horiz-adv-x="569" 
d="M285 756q51 0 87 -36t36 -86t-37 -87t-86 -37t-86 37t-37 87t36 86t87 36z" />
    <glyph glyph-name="radical" unicode="&#x221a;" horiz-adv-x="1173" 
d="M1174 1716l-457 -2025h-135l-328 960l-154 -59l-30 94l280 111l262 -770q25 -98 35 -150h2q3 19 13 71t14 79l383 1689h115z" />
    <glyph glyph-name="infinity" unicode="&#x221e;" horiz-adv-x="1597" 
d="M1182 823h-2q-50 -1 -102 -29t-81 -53t-81 -81t-58 -62q118 -129 184 -179t151 -50q85 -1 140 67t55 165t-58 159t-148 63zM426 369h2q93 0 177 76q48 42 90 89q42 46 50 54q-55 66 -73 88t-68 68q-88 80 -186 79q-98 0 -155 -67q-56 -68 -55 -164t61 -160
q61 -63 157 -63zM1491 600v-2q0 -143 -93 -234q-92 -92 -202 -92t-196 58t-199 186q-101 -119 -189 -181q-88 -63 -208 -63t-209 92q-91 92 -91 230q0 137 92 230q92 94 214 94t210 -65t187 -181q59 66 85 92t80 72q96 80 224 81t212 -87q83 -88 83 -230z" />
    <glyph glyph-name="integral" unicode="&#x222b;" horiz-adv-x="733" 
d="M588 1651q-162 0 -162 -420q0 -160 14 -515t15 -526q0 -281 -88 -417q-68 -106 -205 -107q-78 0 -133 35l26 113q55 -25 103 -25t86 47q70 96 69 357q0 172 -14 531t-14 521q0 520 303 520q59 1 112 -28l-26 -109q-30 23 -86 23z" />
    <glyph glyph-name="approxequal" unicode="&#x2248;" horiz-adv-x="1155" 
d="M904 423q44 36 91 116l64 -56q-100 -195 -264 -194q-57 0 -105 18t-156 79q-106 60 -172 60t-112 -40t-90 -115l-66 55q47 92 121 144t151 52t117 -18q39 -18 80 -42t45 -26q18 -7 73 -38t117 -31t106 36zM795 639q-57 0 -105 18t-152 78t-173 60t-113 -40t-92 -114
l-66 55q102 197 283 197q71 0 128 -30q19 -9 58 -32t48 -27t51 -26q42 -23 53 -27q12 -3 34 -9t66 -7q91 0 180 154l64 -55q-98 -195 -264 -195z" />
    <glyph glyph-name="notequal" unicode="&#x2260;" horiz-adv-x="1155" 
d="M1049 838v-101h-361l-139 -301h500v-98h-541l-111 -244l-80 37l95 207h-308v98h351l137 301h-488v101h527l108 237l80 -35l-92 -202h322z" />
    <glyph glyph-name="lessequal" unicode="&#x2264;" horiz-adv-x="1155" 
d="M1049 12h-945v103h945v-103zM1044 201l-927 463v106l925 463v-121l-819 -391v-4l821 -398v-118z" />
    <glyph glyph-name="greaterequal" unicode="&#x2265;" horiz-adv-x="1155" 
d="M1049 12h-943v103h943v-103zM119 1233l925 -463v-106l-925 -463v118l817 396v4l-817 393v121z" />
    <glyph glyph-name="lozenge" unicode="&#x25ca;" horiz-adv-x="1173" 
d="M920 717l-293 579q-27 63 -39 109h-4q-20 -66 -41 -109l-291 -571l295 -584q25 -55 37 -106h6q23 74 37 104zM1061 721l-414 -815h-125l-409 815l413 815h125z" />
    <hkern u1="T" u2="&#x161;" k="57" />
    <hkern u1="T" u2="&#xfc;" k="94" />
    <hkern u1="T" u2="&#xf6;" k="115" />
    <hkern u1="T" u2="&#xf2;" k="115" />
    <hkern u1="T" u2="&#xeb;" k="115" />
    <hkern u1="T" u2="&#xea;" k="170" />
    <hkern u1="T" u2="&#xe8;" k="170" />
    <hkern u1="T" u2="&#xe5;" k="115" />
    <hkern u1="T" u2="&#xe4;" k="57" />
    <hkern u1="T" u2="&#xe3;" k="115" />
    <hkern u1="T" u2="&#xe2;" k="115" />
    <hkern u1="T" u2="&#xe0;" k="115" />
    <hkern u1="V" u2="&#xf6;" k="57" />
    <hkern u1="V" u2="&#xf4;" k="84" />
    <hkern u1="V" u2="&#xee;" k="-8" />
    <hkern u1="V" u2="&#xeb;" k="57" />
    <hkern u1="V" u2="&#xea;" k="57" />
    <hkern u1="V" u2="&#xe8;" k="57" />
    <hkern u1="V" u2="&#xe5;" k="57" />
    <hkern u1="V" u2="&#xe4;" k="57" />
    <hkern u1="V" u2="&#xe3;" k="57" />
    <hkern u1="V" u2="&#xe2;" k="57" />
    <hkern u1="V" u2="&#xe0;" k="57" />
    <hkern u1="W" u2="&#xfc;" k="29" />
    <hkern u1="W" u2="&#xf6;" k="88" />
    <hkern u1="W" u2="&#xea;" k="72" />
    <hkern u1="W" u2="&#xe4;" k="57" />
    <hkern u1="Y" u2="&#xfc;" k="115" />
    <hkern u1="Y" u2="&#xf6;" k="170" />
    <hkern u1="&#x2018;" u2="&#x2018;" k="186" />
    <hkern u1="&#x2019;" u2="&#x2019;" k="186" />
    <hkern g1="f,fi,fl"
	g2="quoteright"
	k="-37" />
    <hkern g1="f,fi,fl"
	g2="f,germandbls,fi,fl"
	k="37" />
    <hkern g1="F"
	g2="A,Agrave,Aacute,Acircumflex,Atilde,Adieresis,Aring,AE"
	k="113" />
    <hkern g1="F"
	g2="comma"
	k="322" />
    <hkern g1="F"
	g2="period"
	k="322" />
    <hkern g1="L,Lslash"
	g2="T"
	k="188" />
    <hkern g1="L,Lslash"
	g2="V"
	k="188" />
    <hkern g1="L,Lslash"
	g2="W"
	k="113" />
    <hkern g1="L,Lslash"
	g2="y,yacute,ydieresis"
	k="76" />
    <hkern g1="L,Lslash"
	g2="Y,Yacute,Ydieresis"
	k="227" />
    <hkern g1="L,Lslash"
	g2="quoteright"
	k="152" />
    <hkern g1="P"
	g2="A,Agrave,Aacute,Acircumflex,Atilde,Adieresis,Aring,AE"
	k="152" />
    <hkern g1="P"
	g2="comma"
	k="367" />
    <hkern g1="P"
	g2="period"
	k="367" />
    <hkern g1="r"
	g2="comma"
	k="188" />
    <hkern g1="r"
	g2="period"
	k="188" />
    <hkern g1="r"
	g2="c,ccedilla"
	k="37" />
    <hkern g1="r"
	g2="d,dotlessi"
	k="37" />
    <hkern g1="r"
	g2="e,egrave,eacute,ecircumflex,edieresis"
	k="37" />
    <hkern g1="r"
	g2="g"
	k="37" />
    <hkern g1="r"
	g2="o,ograve,oacute,ocircumflex,otilde,odieresis,oslash,oe"
	k="37" />
    <hkern g1="r"
	g2="q"
	k="37" />
    <hkern g1="r"
	g2="hyphen"
	k="113" />
    <hkern g1="R"
	g2="T"
	k="37" />
    <hkern g1="R"
	g2="V"
	k="37" />
    <hkern g1="R"
	g2="W"
	k="37" />
    <hkern g1="R"
	g2="Y,Yacute,Ydieresis"
	k="76" />
    <hkern g1="T"
	g2="w"
	k="227" />
    <hkern g1="T"
	g2="y,yacute,ydieresis"
	k="227" />
    <hkern g1="T"
	g2="A,Agrave,Aacute,Acircumflex,Atilde,Adieresis,Aring,AE"
	k="188" />
    <hkern g1="T"
	g2="comma"
	k="227" />
    <hkern g1="T"
	g2="period"
	k="227" />
    <hkern g1="T"
	g2="c,ccedilla"
	k="227" />
    <hkern g1="T"
	g2="e,egrave,eacute,ecircumflex,edieresis"
	k="227" />
    <hkern g1="T"
	g2="o,ograve,oacute,ocircumflex,otilde,odieresis,oslash,oe"
	k="227" />
    <hkern g1="T"
	g2="hyphen"
	k="264" />
    <hkern g1="T"
	g2="a,agrave,aacute,acircumflex,atilde,adieresis,aring,ae"
	k="227" />
    <hkern g1="T"
	g2="r"
	k="188" />
    <hkern g1="T"
	g2="s,scaron"
	k="227" />
    <hkern g1="T"
	g2="u,ugrave,uacute,ucircumflex,udieresis"
	k="188" />
    <hkern g1="T"
	g2="colon"
	k="227" />
    <hkern g1="T"
	g2="semicolon"
	k="227" />
    <hkern g1="v"
	g2="comma"
	k="152" />
    <hkern g1="v"
	g2="period"
	k="152" />
    <hkern g1="V"
	g2="y,yacute,ydieresis"
	k="37" />
    <hkern g1="V"
	g2="A,Agrave,Aacute,Acircumflex,Atilde,Adieresis,Aring,AE"
	k="94" />
    <hkern g1="V"
	g2="comma"
	k="264" />
    <hkern g1="V"
	g2="period"
	k="264" />
    <hkern g1="V"
	g2="e,egrave,eacute,ecircumflex,edieresis"
	k="113" />
    <hkern g1="V"
	g2="o,ograve,oacute,ocircumflex,otilde,odieresis,oslash,oe"
	k="113" />
    <hkern g1="V"
	g2="hyphen"
	k="113" />
    <hkern g1="V"
	g2="a,agrave,aacute,acircumflex,atilde,adieresis,aring,ae"
	k="113" />
    <hkern g1="V"
	g2="r"
	k="76" />
    <hkern g1="V"
	g2="u,ugrave,uacute,ucircumflex,udieresis"
	k="76" />
    <hkern g1="V"
	g2="colon"
	k="94" />
    <hkern g1="V"
	g2="semicolon"
	k="94" />
    <hkern g1="V"
	g2="i,igrave,iacute,icircumflex,idieresis"
	k="37" />
    <hkern g1="w"
	g2="comma"
	k="113" />
    <hkern g1="w"
	g2="period"
	k="113" />
    <hkern g1="W"
	g2="A,Agrave,Aacute,Acircumflex,Atilde,Adieresis,Aring,AE"
	k="49" />
    <hkern g1="W"
	g2="comma"
	k="152" />
    <hkern g1="W"
	g2="period"
	k="152" />
    <hkern g1="W"
	g2="e,egrave,eacute,ecircumflex,edieresis"
	k="96" />
    <hkern g1="W"
	g2="o,ograve,oacute,ocircumflex,otilde,odieresis,oslash,oe"
	k="117" />
    <hkern g1="W"
	g2="a,agrave,aacute,acircumflex,atilde,adieresis,aring,ae"
	k="76" />
    <hkern g1="W"
	g2="r"
	k="37" />
    <hkern g1="W"
	g2="u,ugrave,uacute,ucircumflex,udieresis"
	k="37" />
    <hkern g1="W"
	g2="colon"
	k="37" />
    <hkern g1="W"
	g2="semicolon"
	k="37" />
    <hkern g1="y,yacute,ydieresis"
	g2="comma"
	k="152" />
    <hkern g1="y,yacute,ydieresis"
	g2="period"
	k="152" />
    <hkern g1="Y,Yacute,Ydieresis"
	g2="v"
	k="113" />
    <hkern g1="Y,Yacute,Ydieresis"
	g2="A,Agrave,Aacute,Acircumflex,Atilde,Adieresis,Aring,AE"
	k="152" />
    <hkern g1="Y,Yacute,Ydieresis"
	g2="comma"
	k="285" />
    <hkern g1="Y,Yacute,Ydieresis"
	g2="period"
	k="285" />
    <hkern g1="Y,Yacute,Ydieresis"
	g2="e,egrave,eacute,ecircumflex,edieresis"
	k="227" />
    <hkern g1="Y,Yacute,Ydieresis"
	g2="o,ograve,oacute,ocircumflex,otilde,odieresis,oslash,oe"
	k="227" />
    <hkern g1="Y,Yacute,Ydieresis"
	g2="q"
	k="188" />
    <hkern g1="Y,Yacute,Ydieresis"
	g2="hyphen"
	k="227" />
    <hkern g1="Y,Yacute,Ydieresis"
	g2="a,agrave,aacute,acircumflex,atilde,adieresis,aring,ae"
	k="188" />
    <hkern g1="Y,Yacute,Ydieresis"
	g2="u,ugrave,uacute,ucircumflex,udieresis"
	k="152" />
    <hkern g1="Y,Yacute,Ydieresis"
	g2="colon"
	k="188" />
    <hkern g1="Y,Yacute,Ydieresis"
	g2="semicolon"
	k="188" />
    <hkern g1="Y,Yacute,Ydieresis"
	g2="i,igrave,iacute,icircumflex,idieresis"
	k="76" />
    <hkern g1="Y,Yacute,Ydieresis"
	g2="p"
	k="152" />
    <hkern g1="quoteright"
	g2="s,scaron"
	k="152" />
    <hkern g1="quoteright"
	g2="t"
	k="37" />
  </font>
</defs></svg>
