<?xml version="1.0" encoding="UTF-8" standalone="no"?>
<svg width="33px" height="33px" viewBox="0 0 33 33" version="1.1" xmlns="http://www.w3.org/2000/svg" xmlns:xlink="http://www.w3.org/1999/xlink" xmlns:sketch="http://www.bohemiancoding.com/sketch/ns">
    <!-- Generator: Sketch 3.0.4 (8054) - http://www.bohemiancoding.com/sketch -->
    <title>delete</title>
    <desc>Created with Sketch.</desc>
    <defs></defs>
    <g id="Page-1" stroke="none" stroke-width="1" fill="none" fill-rule="evenodd" sketch:type="MSPage">
        <g id="delete" sketch:type="MSLayerGroup" transform="translate(10.484375, 10.773438)" fill="#343434">
            <path d="M5.2539764,6.0604236 L0.3042764,1.1107236 L1.0934,0.3216 L6.0431,5.2713 L10.9928,0.3216 L11.7819236,1.1107236 L6.8322236,6.0604236 L12.2592161,11.4874161 L11.4700925,12.2765397 L6.0431,6.8495472 L0.6161075,12.2765397 L-0.1730161,11.4874161 L5.2539764,6.0604236 L5.2539764,6.0604236 Z" id="Shape" sketch:type="MSShapeGroup"></path>
        </g>
    </g>
</svg>