<?xml version="1.0" encoding="UTF-8" standalone="no"?>
<svg width="33px" height="33px" viewBox="0 0 33 33" version="1.1" xmlns="http://www.w3.org/2000/svg" xmlns:xlink="http://www.w3.org/1999/xlink" xmlns:sketch="http://www.bohemiancoding.com/sketch/ns">
    <!-- Generator: Sketch 3.0.4 (8054) - http://www.bohemiancoding.com/sketch -->
    <title>folder</title>
    <desc>Created with Sketch.</desc>
    <defs></defs>
    <g id="Page-1" stroke="none" stroke-width="1" fill="none" fill-rule="evenodd" sketch:type="MSPage">
        <g id="folder" sketch:type="MSLayerGroup" transform="translate(6.484375, 9.773438)" fill="#343434">
            <path d="M19.413,13.665 L0.335,13.665 L0.335,1.321 L19.412,1.321 L19.412,13.665 L19.413,13.665 L19.413,13.665 Z M1.551,1.321 L6.207,1.321 L5.119,-0.432 L2.519,-0.432 L1.551,1.321 L1.551,1.321 Z" id="Shape" sketch:type="MSShapeGroup"></path>
        </g>
    </g>
</svg>