<?xml version="1.0" encoding="UTF-8" standalone="no"?>
<svg width="33px" height="33px" viewBox="0 0 33 33" version="1.1" xmlns="http://www.w3.org/2000/svg" xmlns:xlink="http://www.w3.org/1999/xlink" xmlns:sketch="http://www.bohemiancoding.com/sketch/ns">
    <!-- Generator: Sketch 3.0.4 (8054) - http://www.bohemiancoding.com/sketch -->
    <title>learning</title>
    <desc>Created with Sketch.</desc>
    <defs></defs>
    <g id="Page-1" stroke="none" stroke-width="1" fill="none" fill-rule="evenodd" sketch:type="MSPage">
        <g id="learning" sketch:type="MSLayerGroup" transform="translate(4.484375, 6.773438)" fill="#343434">
            <path d="M18.4003562,18.9823011 L5.6004972,18.9823011 L5.6004972,9.7676826 L12.0063999,13.63068 L18.4003562,9.7710959 L18.4003562,18.9823011 L18.4003562,18.9823011 Z M12.0004267,1.11071124 L22.6243096,6.2251082 L12.0063999,12.6339977 L1.37654368,6.2246816 L12.0004267,1.11071124 L12.0004267,1.11071124 Z M24.4158632,6.1397759 L12.0004267,0.164375 L-0.41586325,6.1402025 L1.33387748,7.1953376 L1.33387748,16.4223293 L2.18720142,16.4223293 L2.18720142,7.7098919 L4.74717322,9.2535549 L4.74717322,19.835625 L19.2536801,19.835625 L19.2536801,9.2561149 L24.4158632,6.1397759 L24.4158632,6.1397759 Z" id="Academic-Hat" sketch:type="MSShapeGroup"></path>
        </g>
    </g>
</svg>