<?xml version="1.0" encoding="UTF-8" standalone="no"?>
<svg width="33px" height="33px" viewBox="0 0 33 33" version="1.1" xmlns="http://www.w3.org/2000/svg" xmlns:xlink="http://www.w3.org/1999/xlink" xmlns:sketch="http://www.bohemiancoding.com/sketch/ns">
    <!-- Generator: Sketch 3.0.4 (8054) - http://www.bohemiancoding.com/sketch -->
    <title>picture2</title>
    <desc>Created with Sketch.</desc>
    <defs></defs>
    <g id="Page-1" stroke="none" stroke-width="1" fill="none" fill-rule="evenodd" sketch:type="MSPage">
        <g id="picture2" sketch:type="MSLayerGroup" transform="translate(8.484375, 10.773438)" fill="#343434">
            <path d="M10.239,6.479 C10.239,5.269 9.258,4.287 8.047,4.287 C6.836,4.287 5.855,5.269 5.855,6.479 C5.855,7.689 6.836,8.671 8.047,8.671 C9.258,8.671 10.239,7.69 10.239,6.479 L10.239,6.479 L10.239,6.479 Z M7.251,6.703 L6.415,6.743 C6.353,5.437 7.593,4.871 8.257,4.754 L8.404,5.578 C8.355,5.587 7.208,5.809 7.251,6.703 L7.251,6.703 L7.251,6.703 Z" id="Shape" sketch:type="MSShapeGroup"></path>
            <path d="M14.934,-0.448 L1.161,-0.448 C0.655,-0.448 0.245,-0.038 0.245,0.468 L0.245,11.615 C0.245,12.121 0.655,12.531 1.161,12.531 L14.934,12.531 C15.44,12.531 15.85,12.121 15.85,11.615 L15.85,0.468 C15.85,-0.038 15.44,-0.448 14.934,-0.448 L14.934,-0.448 L14.934,-0.448 Z M2.505,0.376 L5.223,0.376 L5.223,1.17 L2.505,1.17 L2.505,0.376 L2.505,0.376 Z M14.598,11.31 L1.574,11.31 L1.574,10.21 L14.597,10.21 L14.597,11.31 L14.598,11.31 L14.598,11.31 Z M5.009,6.576 C5.009,4.876 6.387,3.498 8.087,3.498 C9.786,3.498 11.164,4.876 11.164,6.576 C11.164,8.275 9.786,9.653 8.087,9.653 C6.387,9.653 5.009,8.275 5.009,6.576 L5.009,6.576 L5.009,6.576 Z M14.598,2.911 L1.588,2.911 C1.558,2.911 1.588,1.629 1.588,1.629 L6.475,1.599 L6.475,0.896 L14.598,0.896 L14.598,2.911 L14.598,2.911 Z" id="Shape" sketch:type="MSShapeGroup"></path>
        </g>
    </g>
</svg>