<?xml version="1.0" encoding="UTF-8" standalone="no"?>
<svg width="33px" height="33px" viewBox="0 0 33 33" version="1.1" xmlns="http://www.w3.org/2000/svg" xmlns:xlink="http://www.w3.org/1999/xlink" xmlns:sketch="http://www.bohemiancoding.com/sketch/ns">
    <!-- Generator: Sketch 3.0.4 (8054) - http://www.bohemiancoding.com/sketch -->
    <title>programming</title>
    <desc>Created with Sketch.</desc>
    <defs></defs>
    <g id="Page-1" stroke="none" stroke-width="1" fill="none" fill-rule="evenodd" sketch:type="MSPage">
        <g id="programming" sketch:type="MSLayerGroup" transform="translate(4.484375, 11.773438)" fill="#343434">
            <path d="M19.01,9.91 C16.5782,9.91 14.6,7.9318 14.6,5.5 C14.6,3.06862 16.5782,1.09042 19.01,1.09042 C21.4418,1.09042 23.42,3.06862 23.42,5.5 C23.42,7.9318 21.4418,9.91 19.01,9.91 L19.01,9.91 L19.01,9.91 Z M5.99,9.91 C3.5582,9.91 1.58,7.9318 1.58,5.5 C1.58,3.0682 3.5582,1.09 5.99,1.09 C8.4218,1.09 10.4,3.0682 10.4,5.5 C10.4,7.9318 8.4218,9.91 5.99,9.91 L5.99,9.91 L5.99,9.91 Z M24.47,4.87042 L24.21884,4.87042 C23.9072,2.26852 21.6959,0.25042 19.01,0.25042 C16.51478,0.25042 14.43032,1.993 13.8965,4.3261 L12.69446,3.6982 C12.57308,3.6352 12.42692,3.6352 12.30554,3.6982 L11.1035,4.3261 C10.5701,1.99258 8.48564,0.25 5.99,0.25 C3.3041,0.25 1.09322,2.2681 0.78158,4.87 L0.53,4.87 C0.18224,4.87 -0.1,5.15224 -0.1,5.50042 C-0.1,5.84776 0.18224,6.13 0.53,6.13 L0.78158,6.13 C1.09322,8.73232 3.3041,10.75 5.99,10.75 C8.88968,10.75 11.24,8.4001 11.24,5.5 C11.24,5.40256 11.23076,5.3068 11.2253,5.21062 L12.5,4.5445 L13.7747,5.21062 C13.76966,5.3068 13.76,5.40256 13.76,5.5 C13.76,8.39968 16.11074,10.75 19.01,10.75 C21.6959,10.75 23.90636,8.73232 24.21884,6.13042 L24.47,6.13042 C24.81776,6.13042 25.1,5.84818 25.1,5.50042 C25.1,5.15266 24.81776,4.87042 24.47,4.87042 L24.47,4.87042 L24.47,4.87042 Z" id="Reading-List" sketch:type="MSShapeGroup"></path>
        </g>
    </g>
</svg>