<?xml version="1.0" encoding="UTF-8" standalone="no"?>
<svg width="33px" height="33px" viewBox="0 0 33 33" version="1.1" xmlns="http://www.w3.org/2000/svg" xmlns:xlink="http://www.w3.org/1999/xlink" xmlns:sketch="http://www.bohemiancoding.com/sketch/ns">
    <!-- Generator: Sketch 3.0.4 (8054) - http://www.bohemiancoding.com/sketch -->
    <title>stacks</title>
    <desc>Created with Sketch.</desc>
    <defs></defs>
    <g id="Page-1" stroke="none" stroke-width="1" fill="none" fill-rule="evenodd" sketch:type="MSPage">
        <g id="stack" sketch:type="MSLayerGroup" transform="translate(10.484375, 9.773438)" fill="#343434">
            <path d="M11.9347826,5.5579808 C11.9347826,6.7856731 9.4972826,8.1538462 6,8.1538462 C2.5021522,8.1538462 0.0652174,6.7856731 0.0652174,5.5579808 L0.0652174,3.9671154 C1.0797826,5.0739423 3.3542174,5.8461538 6,5.8461538 C8.6449348,5.8461538 10.9202174,5.0739423 11.9347826,3.9671154 L11.9347826,5.5579808 L11.9347826,5.5579808 Z M11.9347826,8.4425962 C11.9347826,9.6702885 9.4972826,11.0384615 6,11.0384615 C2.5021522,11.0384615 0.0652174,9.6702885 0.0652174,8.4425962 L0.0652174,6.8517308 C1.0797826,7.9585577 3.3542174,8.7307692 6,8.7307692 C8.6449348,8.7307692 10.9202174,7.9585577 11.9347826,6.8517308 L11.9347826,8.4425962 L11.9347826,8.4425962 Z M11.9347826,10.7502885 L11.9347826,11.3272115 C11.9347826,12.5549038 9.4972826,13.9230769 6,13.9230769 C2.5021522,13.9230769 0.0652174,12.5549038 0.0652174,11.3272115 L0.0652174,9.7363462 C1.0797826,10.8431731 3.3542174,11.6153846 6,11.6153846 C8.6449348,11.6153846 10.9202174,10.8431731 11.9347826,9.7363462 L11.9347826,10.7502885 L11.9347826,10.7502885 Z M6,0.07692308 C9.4972826,0.07692308 11.9347826,1.4450962 11.9347826,2.6733654 C11.9347826,3.9010577 9.4972826,5.2692308 6,5.2692308 C2.5021522,5.2692308 0.0652174,3.9010577 0.0652174,2.6733654 C0.0652174,1.4450962 2.5021522,0.07692308 6,0.07692308 L6,0.07692308 L6,0.07692308 Z M6,-0.5 C2.4100217,-0.5 -0.5,0.9206731 -0.5,2.6733654 L-0.5,11.3272115 C-0.5,13.0793269 2.4100217,14.5 6,14.5 C9.589413,14.5 12.5,13.0793269 12.5,11.3272115 L12.5,2.6733654 C12.5,0.9206731 9.589413,-0.5 6,-0.5 L6,-0.5 L6,-0.5 Z" id="Stack" sketch:type="MSShapeGroup"></path>
        </g>
    </g>
</svg>